beginchar(71,4,1,1);
pickup pensquare scaled 9; 
draw(4ux, 5uy)--(0.ux, 0.uy);
draw(4ux, 5uy)--(3.5ux, 3.uy);
draw(0ux, 0uy)--(3.5ux, 0.uy);
draw(2.2ux, 2uy)--(3.5ux, 2uy);
draw(3.5ux, 0.uy)--(3.5ux, 2uy);
endchar();
