<?xml version="1.0"?>
<!-- Created by MetaPost 2.02 on 2023.02.04:1711 -->
<svg version="1.1" xmlns="http://www.w3.org/2000/svg" xmlns:xlink="http://www.w3.org/1999/xlink" width="239.102783" height="557.906494" viewBox="0 0 239.102783 557.906494">
<!-- Original BoundingBox: -39.850464 -159.401855 199.252319 398.504639 -->
  <path d="M-0.850464 557.401855L238.252319 557.401855L238.252319 -0.504639L-0.850464 -0.504639Z" style="stroke:rgb(100.000000%,0.000000%,0.000000%); stroke-width: 0.000000;stroke-linecap: round;stroke-linejoin: round;stroke-miterlimit: 10.000000;fill: none;"></path>
  <path d="M198.401245 294.388535L198.401245 294.388535C198.401245 347.446152,161.561081 387.538834,118.700623 387.538834C75.840164 387.538834,39.000000 347.446152,39.000000 294.388535L39.000000 287.613556C39.000000 236.882675,76.696823 201.238251,118.700623 201.238251C141.486282 201.238251,163.729721 210.100891,182.460953 226.642868" style="stroke:rgb(0.000000%,0.000000%,0.000000%); stroke-width: 19.925232;stroke-linecap: round;stroke-linejoin: round;stroke-miterlimit: 10.000000;fill: none;"></path>
  <path d="M118.700928 288.411224L198.401855 288.411224" style="stroke:rgb(0.000000%,0.000000%,0.000000%); stroke-width: 19.925232;stroke-linecap: round;stroke-linejoin: round;stroke-miterlimit: 10.000000;fill: none;"></path>
</svg>
