<?xml version="1.0"?>
<!-- Created by MetaPost 2.02 on 2023.02.04:1711 -->
<svg version="1.1" xmlns="http://www.w3.org/2000/svg" xmlns:xlink="http://www.w3.org/1999/xlink" width="278.953247" height="557.906494" viewBox="0 0 278.953247 557.906494">
<!-- Original BoundingBox: -39.850464 -159.401855 239.102783 398.504639 -->
  <path d="M-0.850464 557.401855L278.102783 557.401855L278.102783 -0.504639L-0.850464 -0.504639Z" style="stroke:rgb(100.000000%,0.000000%,0.000000%); stroke-width: 0.000000;stroke-linecap: round;stroke-linejoin: round;stroke-miterlimit: 10.000000;fill: none;"></path>
  <path d="M48.962616 388.037384L48.962616 168.859833" style="stroke:rgb(0.000000%,0.000000%,0.000000%); stroke-width: 19.925232;stroke-linecap: round;stroke-linejoin: round;stroke-miterlimit: 10.000000;fill: none;"></path>
  <path d="M228.289703 388.037384L228.289703 168.859833" style="stroke:rgb(0.000000%,0.000000%,0.000000%); stroke-width: 19.925232;stroke-linecap: round;stroke-linejoin: round;stroke-miterlimit: 10.000000;fill: none;"></path>
  <path d="M138.626160 288.411224L48.962616 168.859833" style="stroke:rgb(0.000000%,0.000000%,0.000000%); stroke-width: 19.925232;stroke-linecap: round;stroke-linejoin: round;stroke-miterlimit: 10.000000;fill: none;"></path>
  <path d="M154.566101 264.500702L228.289703 168.859833" style="stroke:rgb(0.000000%,0.000000%,0.000000%); stroke-width: 19.925232;stroke-linecap: round;stroke-linejoin: round;stroke-miterlimit: 10.000000;fill: none;"></path>
</svg>
