<?xml version="1.0"?>
<!-- Created by MetaPost 2.02 on 2023.02.04:1711 -->
<svg version="1.1" xmlns="http://www.w3.org/2000/svg" xmlns:xlink="http://www.w3.org/1999/xlink" width="239.102783" height="557.906494" viewBox="0 0 239.102783 557.906494">
<!-- Original BoundingBox: -39.850464 -159.401855 199.252319 398.504639 -->
  <path d="M-0.850464 557.401855L238.252319 557.401855L238.252319 -0.504639L-0.850464 -0.504639Z" style="stroke:rgb(100.000000%,0.000000%,0.000000%); stroke-width: 0.000000;stroke-linecap: round;stroke-linejoin: round;stroke-miterlimit: 10.000000;fill: none;"></path>
  <path d="M39.000000 278.448608C39.000000 232.558578,73.748474 193.766373,118.700928 193.766373C163.653381 193.766373,198.401855 232.558578,198.401855 278.448608L198.401855 298.373840C198.401855 344.263870,163.653381 383.056076,118.700928 383.056076C73.748474 383.056076,39.000000 344.263870,39.000000 298.373840Z" style="stroke:rgb(0.000000%,0.000000%,0.000000%); stroke-width: 19.925232;stroke-linecap: round;stroke-linejoin: round;stroke-miterlimit: 10.000000;fill: none;"></path>
</svg>
