<?xml version="1.0"?>
<!-- Created by MetaPost 2.02 on 2023.02.04:1711 -->
<svg version="1.1" xmlns="http://www.w3.org/2000/svg" xmlns:xlink="http://www.w3.org/1999/xlink" width="239.102783" height="557.906494" viewBox="0 0 239.102783 557.906494">
<!-- Original BoundingBox: -39.850464 -159.401855 199.252319 398.504639 -->
  <path d="M-0.850464 557.401855L238.252319 557.401855L238.252319 -0.504639L-0.850464 -0.504639Z" style="stroke:rgb(100.000000%,0.000000%,0.000000%); stroke-width: 0.000000;stroke-linecap: round;stroke-linejoin: round;stroke-miterlimit: 10.000000;fill: none;"></path>
  <path d="M171.834366 248.560760C175.590195 212.769775,150.735641 181.313095,118.700623 181.313095C94.612457 181.313095,70.600464 193.478287,65.566879 218.672913C59.141754 250.832596,86.231186 278.448608,118.700623 278.448608C151.170059 278.448608,178.259506 306.064621,171.834366 338.224304C166.800781 363.418930,142.788773 375.584106,118.700623 375.584106C85.898727 375.584106,59.516327 345.229416,60.253174 308.336456" style="stroke:rgb(0.000000%,0.000000%,0.000000%); stroke-width: 19.925232;stroke-linecap: round;stroke-linejoin: round;stroke-miterlimit: 10.000000;fill: none;"></path>
</svg>
