%etat 0
beginchar (97,4,1,1);
pickup pensquare scaled 10;
draw(1ux, 0uy)--(4ux, 5uy);
pickup pensquare scaled 10;
draw(4ux, 0uy)--(4ux, 5uy);
pickup pensquare scaled 10; 
draw(2ux, 2uy)--(3ux, 2uy);
pickup pensquare scaled 4; 
draw(2ux, 1.7uy)--(3ux, 1.7uy);  

endchar();

