% La ligne suivante indique à Metapost de stocker chaque figure produite dans un dossier nommé ‘svg’
outputtemplate := "svg/%c.svg";
% Pour plus de comodité dans la manipulation des fichiers on précise ici qu'on aimerait avoir des fichiers vectoriels, au format svg en sortie
outputformat := "svg";

def variables=
	% On définit ici la valeur de l'unité de base
	u = 40pt;
	% On peut faire varier le coefficient de cette valeur en x et en y
	ux = 1u;
	uy = 1u;

	deg = 20;

	% Les 3 lignes suivantes permettent d'afficher (1) ou d'éteindre (0) l'affichage des éléments de la grille de dessin
	grid = 1;
	hints = 1;
	dot_label = 1;
	height := 8;
	baseline := 0;
	xHeight := 4;
	ascHeight := 8;
	descHeight := -2;
	capHeight := 6;
	% Gijs: For me it would make more sense to either have all variables
	% 'expressed in' uy, or all as numbers
	% Pierre : yes
	capOvershoot := 0.15uy;
	xOvershoot := 2.1uy;
	HHeight := capHeight*uy;
	ascxHeight := 6uy;

	r := 2.25;
	rLowercase := 1.5;
	cutLine := 0.85uy;

	% L'épaisseur du trait peut être préciser en x et en y, l'inclinaison de la plume est définie avec une valeur de rotation.
	strokeX := .3u;
	strokeY := .3u;
	rotation := 40;

	% GRAISSES

	def col =
		blue
	enddef;

enddef;

% Les lignes ci-dessous permettent de dessiner la grille en faisant appel aux variables définies plus haut.
def beginchar(expr keycode, width, leftSpace, rightSpace)=
	beginfig(keycode);
		variables;
		pickup pencircle scaled .2;

		if unknown leftSpace: leftSpace  :=  1 fi;
		if unknown rightSpace: rightSpace  :=  1 fi;

		draw (- leftSpace * ux, (descHeight - 2) * uy) -- 
			((width + rightSpace) * ux, (descHeight - 2) * uy) --
			((width + rightSpace) * ux, (ascHeight + 2) * uy) -- 
			(- leftSpace * ux, (ascHeight + 2) * uy) -- 
			cycle scaled 0 withcolor red;

		if grid = 1:
			defaultscale := .2;
			for i=0 upto width:
				draw (i*ux, ascHeight*uy) -- (i*ux, descHeight*uy) withcolor .3white;
			endfor;
			for i=descHeight upto (ascHeight):
				draw (width*ux, i*uy) -- (0*ux, i*uy) withcolor .3white;
			endfor;
		fi;

		pickup pencircle scaled 1;

		if hints = 1:
			% draw (0 * ux, (xHeight * uy) + os_x) -- (width * ux, (xHeight * uy) + os_x)  withcolor green;
			% draw (0 * ux, xHeight * uy) -- (width * ux, xHeight * uy)  withcolor (green + blue);

			draw (0 * ux, capHeight * uy) -- (width * ux, capHeight * uy)  withcolor (green + blue);
			draw (0 * ux, xHeight * uy) -- (width * ux, xHeight * uy)  withcolor (green + blue);
			draw (0 * ux, ascHeight * uy) -- (width * ux, ascHeight * uy)  withcolor (green + blue);
			draw (0 * ux, descHeight * uy) -- (width * ux, descHeight * uy)  withcolor (green + blue);
			draw (0 * ux, baseline * uy) -- (width * ux, baseline * uy)  withcolor green;
		fi;
		linejoin := rounded;
		linecap := rounded;

		pickup pencircle xscaled strokeX yscaled strokeY rotated rotation;

	enddef;

	% Pour s'y retrouver on peut matérialiser et numéroter les points du tracé.
	def endchar(expr lenDots)=
	if dot_label = 1:
		defaultscale := 3;
		for i=1 upto lenDots:
			dotlabels.urt([i]) withcolor blue;
		endfor;
	fi;
endfig;
enddef;

%%%%%%%%%%%%%%%%%%%%%%%%%%%%%%%%%%%%%%%%%%%%%%%%%%%%%%
%%%%%%%%%%%%%%%%%%%%%%%%%%%%%%%%%%%%%%%%%%%%%%%%%%%%%%



% Ici commence la description d'une première figure 

%0 - zero - Jeanne puis Pierre
beginchar(48,3,1,1);
	r :=1.5ux;
	width = 2r;
	x1 = x6 = 0ux;
	x2 = x5 = width/2;
	x3 = x4 = width;
	y2 = HHeight;
	y1 = y3 = HHeight - 1.5u;
	y4 = y6 = baseline + 1.5u;
	y5= baseline;
	path above, below;
	above = halfcircle xscaled (-2r) yscaled (2r) shifted (r, (HHeight + xOvershoot - r));
	below = halfcircle xscaled (2r) yscaled (-2r) shifted (r, (baseline - xOvershoot + r));
	draw above -- below -- cycle withcolor col;
endchar(6);

%1 - THM puis Jeanne
beginchar(49,2,1,1);
	width := 2ux;
	x1 = 0ux;
	x2 = x3 = width;
	y1 = 3/4HHeight;
	y2 = HHeight;
	y3 = baseline;
	draw z1--z2--z3 withcolor col;
endchar(3);

%2 - Alexandre puis Pierre
beginchar(50,3);
	r := 1.5ux;
	width := 2r;
	path above, below, constr, cutline[];
	above = halfcircle xscaled (-2r) yscaled (2r) shifted (r, (HHeight + xOvershoot - r);
		cutoffset1 = 1uy;
		cutline1 = (0, HHeight-cutoffset1) -- (width, HHeight-cutoffset1);
		below = halfcircle xscaled (2r) yscaled (-2r) shifted (r, (HHeight + xOvershoot - r);
			% j'attends la solution de connexion de Dorian :)

			rconstr = arclenght(
				constr = quartercircle xscaled (2r) yscaled (-2r) shifted (r, (HHeight + xOvershoot - r);
					pickup pencircle scaled 3;
					draw constr withcolor black;

					draw above cutbefore cutline1 -- (0,baseline) -- (width, baseline) withcolor col;
				endchar(0);

				%3 - Jeanne puis Pierre
				beginchar(51,3,1,1);
					% les 4 rayons différents!
					r1 := 1.4u;
					r2 := 1.3u;
					r3 := 1.5u;
					r4 := 1.65u;
					% la largeur assez arbitraire
					width := 3ux;
					% le décalage entre les 4 arcs de droite, erroné dans la norme DIN!
					shift := 0.3uy;
					% on initie tous les arcs et les cutlines
					path aboveleft, aboveright, centerabove, centerbelow, belowright, belowleft, cutline[];
					% on place les cutlines
					cutoffset1 = 2.5ux/2;
					cutline1 = (width/2-cutoffset1 , HHeight) -- (width/2-cutoffset1, baseline);
					cutoffset2 = width/2;
					cutline2 = (width/2-cutoffset2 , HHeight) -- (width/2-cutoffset2, baseline);
					% on dessine les 6 arcs, dans le bon sens, avec des "reverse"
					aboveleft = quartercircle xscaled (-2r1) yscaled (2r1) shifted (width/2, (HHeight + xOvershoot - r1);
						aboveright = reverse quartercircle xscaled (2r2) yscaled (2r2) shifted (width/2, (HHeight + xOvershoot - r2);
							centerabove = quartercircle xscaled (2r2) yscaled (-2r2) shifted (width/2, (HHeight + xOvershoot - r2 - shift);
								centerbelow = reverse quartercircle xscaled (2r3) yscaled (2r3) shifted (width/2, (baseline - xOvershoot + r3 + shift);
									belowright = quartercircle xscaled (2r3) yscaled (-2r3) shifted (width/2, (baseline - xOvershoot + r3);
										belowleft = reverse quartercircle xscaled (-2r4) yscaled (-2r4) shifted (width/2, (baseline - xOvershoot + r4);
											% et on dessine le tout
											draw aboveleft cutbefore cutline1 .. aboveright  -- centerabove -- centerbelow -- belowright .. 
												belowleft cutafter cutline2 withcolor col;
										endchar(0);

										%4 - Marie Dv puis Jeanne OK
										beginchar(52,3,1,1);
											width := 3ux;
											y1=HHeight;
											y2=y3=1ux;
											y4=HHeight / 3;
											y5=baseline;
											x1=1.75ux;
											x2=baseline;
											x3=width;
											x4=x5=2.5ux;
											draw z1--z2--z3 withcolor col;
											draw z4--z5 withcolor col;

										endchar(5);

										%5 Jeanne OK
										beginchar(53,3,1,1)

											width:=3ux;
											x1 =x6 = x7 = baseline;
											x2 = x5 = width/2;
											x3 = x4 = width;
											x8=2.75ux;
											y1 =0.5uy;
											y7=y8= HHeight;
											y2 = -0.25uy;
											y6 = 2.5uy;
											y3 = 1.175uy;
											y4 = 1.825uy;
											y5 = 3.5uy;
											% on initialise
											path curv[], cut[], crop[];
											% les deux demi-cercles
											curv1 = z1..z2..z3;
											curv2 = z6..z5..z4;
											draw curv1 withcolor col;
											draw curv2 withcolor col;
											% les segments 
											cut1 = z3--z4;
											cut2 = z6--z7;
											cut3 = z7--z8;
											draw cut1 withcolor col;
											draw cut2 withcolor col;
											draw cut3 withcolor col;

										endchar(8)

										%5 - Marie Lec
										%beginchar(53,4,1,1);
										%x1 = x4 = x5 = 0.5ux;
										%x2 = x3 = x6 = 3.5ux;
										%y1 = 0uy;
										%y2 = 1uy;
										%y3 = 2uy;
										%y4 = 3uy;
										%y5 = y6 = 6uy;
										%draw z1..z2{up}..z3..z4--z5--z6 withcolor col;
										%endchar(6);

										%6 Jeanne OK (en fait non aha)
										beginchar(54,3,1,1);
											width:=3ux;
											x1 =x6 = x7 = baseline;
											x2 = x5 =x8 = width/2;
											x3 = x4 = width;
											x9=2.75ux;
											y8= HHeight+0.25uy;
											y7=xHeight*uy;
											y2 = -0.25uy;
											y1 = y3 = 1.175uy;
											y6 =y4 = 1.825uy;
											y5 = 3.5uy;
											y9=HHeight;
											% on initialise
											path curv[], cut[], crop[];
											% les deux demi-cercles
											curv1 = z1..z2..z3;
											curv2 = z6..z5..z4;
											curv3 = z7..z8..z9;
											draw curv1 withcolor col;
											draw curv2 withcolor col;
											draw curv3 withcolor col;
											% les segments 
											cut1 = z3--z4;
											cut2 = z6--z7;
											%cut3 = z7--z8;
											cut4=z1--z6;
											draw cut1 withcolor col;
											draw cut2 withcolor col;
											%draw cut3 withcolor col;
											draw cut4 withcolor col;

										endchar(9)
										%6 - Drice 
										%beginchar(54,3,1,1);
										%x1 = 2.8ux;
										%y1 = 5.8uy;
										%x2= 1.4ux;
										%y2= 6.1uy;
										%x3=0ux;
										%y3=4.4uy;
										%x4=0uy;
										%y4=2uy;
										%x5=0ux;
										%y5=1uy;
										%x6=1.5ux;
										%y6=-0.2uy;
										%x7=3ux;
										%y7=1uy;
										%x8=3ux;
										%y8=2uy;
										%x9=1.5ux;
										%y9=3.5uy;
										%path p;
										%p = z4--z5{down}..z6..z7--z8..z9;
										%path d;
										%d = z4..z9..z8--z7{down}..z6..z5;

										%pickup penrazor scaled 1.5ux rotated 88;
										%draw subpath(0,2.05) of p withcolor black;
										%draw subpath(0,4) of d withcolor black;
										%draw z1..z2..{down}z3--z4--z5 withcolor black;
										%endchar(0);

										%7 - Tamar puis Jeanne OK
										beginchar(55,3,1,1);
											width :=3ux;
											x1 = x2 = baseline;
											x3 = width;
											x4 = width/3;
											y1 =5uy;
											y2 = y3 = HHeight;
											y4 = baseline;
											draw z1--z2--z3--z4 withcolor col;
										endchar(4);


										%8 - Yulen
										beginchar(56,4,1,1);
											x1 = x5 = 0.5ux;
											x2 = x4 = x6 = 2ux;
											x3 = x7 = 3.5ux;
											y6 = 0uy;
											y5 = y7 = 1.5uy;
											y4 = 3uy;
											y1 = y3 = 4.5uy;
											y2 = 6uy;

											%draw z1 .. z2...z3..z4..z5..z6..z7..z4.. cycle withcolor col;
											draw z1..z2..z3..z4..cycle withcolor col;
											draw z4..z7..z6..z5..cycle withcolor col;

										endchar(7);

										%9 - Thomas B
										beginchar(57,3,1,1);
											x1 = 0.25ux;
											x7 = x8 = 0ux;
											x3 = x4 = x5 = 3ux;
											x2 = x6 = x9 = 1.5ux;

											y1 = 0uy;
											y2 = -0.15uy;
											y3 = 1.35uy;
											y4 = y8 = 4uy;
											y6 = 6.15uy;
											y5 = y7 = 4.65uy;
											y9 = 2.65uy;

											draw z1..z2{right}..tension 0..z3{up}--z5{up}..z6..{bottom}z7--z8{bottom}..z9..{bottom}z4 withcolor col;

										endchar(9);


										%A - Abigail puis Jeanne OK
										beginchar(65,5,1,1);
											width := 5ux;
											x1= baseline;  
											x2= width/2;
											x3= width;
											%x4 = 0.75ux;
											%x5 = 4.25ux;

											y1= y3 = baseline;  
											y2=HHeight;
											%y4=y5= 1.5uy;

											z4 := .25[z1,z2];
											z5 := .25[z3,z2];

											draw z1--z2..z2--z3 withcolor col;
											draw z4--z5 withcolor col;
										endchar(5);

										%B - jeanne (toujours moi) OK je crois
										beginchar(66,4,1,1);
											width := 4ux;
											x1=x2=x3=baseline;
											x4=x6=x8=2.5ux;
											x5=3.75ux;
											x7=width;
											y1=y8=baseline;
											y7=1.5uy;
											y2=y6=HHeight/2;
											y5=4.5uy;
											y3=y4=HHeight;

											draw z1--z2--z3--z4 withcolor col;
											draw z1--z8 withcolor col;
											draw z2--z6 withcolor col;

											% on initialise
											path curv[], cut[], crop[];
											% demi-cercle
											curv1 = z4..z5..z6;
											draw curv1 withcolor col;
											curv2 = z6..z7..z8;
											draw curv2 withcolor col;

										endchar(8);


										% C - Camille puis PierreH
										beginchar(67,4.5, 1, 1);
											widthC = 4.5ux;
											% les points
											x1 = x6 = r*ux*2;
											x2 = x5 = r*ux;
											x3 = x4 = baseline;
											y1 = y3 = HHeight -(r*ux)+  capOvershoot;
											y2 = HHeight + capOvershoot;
											y4 = y6 = r*ux-capOvershoot;
											y5 = baseline-capOvershoot;
											% on initialise
											path curv[], cut[], crop[];
											% les deux demi-cercles
											curv1 = z1..z2..z3;
											curv2 = z4..z5..z6;
											draw curv1 withcolor white;
											draw curv2 withcolor white;
											% les segments qui coupent les cercles
											cut1 = ((x1,y1)--(x3,y3)) shifted (.1ux,cutLine);
											cut2 = ((x6,y6)--(x4,y4)) shifted (.1ux,-cutLine);
											draw cut1 withcolor white;
											draw cut2 withcolor white;
											% les parties de curv[] qui nous intéressent, avant et après les cut[]
											crop1 = curv1 cutbefore cut1;
											crop2 = curv2 cutafter cut2;
											draw crop1 -- crop2 withcolor col;
										endchar(6);




										%D - Dorian - OK

										beginchar(68,4,1,1);

											widthD = 4ux;

											x1=x2= 0ux;
											x3=x6= widthD - r*ux;
											x4=x5= widthD;
											y2=y3= HHeight;
											y4= HHeight - r*ux;
											y5= r*ux;
											y1=y6= 0uy;

											draw z1 -- z2 -- z3{dir 0} .. z4{dir -90} -- z5{dir -90} .. z6{dir 180}  -- z1 withcolor col;

										endchar(6);


										%E - Eugénie puis Julie et Pierre OK
										beginchar(69,4,1,1);
											width := 4ux;
											x1 = x2 = x3 = 0ux;
											x4 = x6 = width;
											x5 = 3/4 * width;
											y3 = y4 = HHeight;
											y2 = y5 = HHeight/2;
											y1 = y6 = baseline;
											draw z6 -- z1 -- z3 -- z4 withcolor col;
											draw z2 -- z5 withcolor col;
										endchar(6);

										%F - Léa Gastaldi puis Jeanne puis Julie OK
										beginchar(70,4,1,1);
											width := 4ux;
											x1 = x2 = x3 = 0ux;
											x5 = 3/4 * width;
											x4 = width;
											y1 = 0uy;
											y2 = y5 = HHeight/2;
											y3 = y4 = HHeight;
											%pickup pencircle scaled 40;
											draw z1 -- z3 -- z4 withcolor col;
											%pickup pencircle scaled 40;
											draw z2 -- z5 withcolor col;
										endchar(5);

										%G - Gaby  - Hugo (z1 placé arbitrairement)
										beginchar(71,4,1,1);
											widthG = 4.5ux;
											% les points
											x1 = 4ux;
											x6 = x7 = r*ux*2;
											x2 = x5 = x8 = r*ux;
											x3 = x4 = baseline;
											y1 = 4.85uy;
											y3 = HHeight -(r*ux)+  capOvershoot;
											y2 = HHeight + capOvershoot;
											y4 = y6 = r*ux-capOvershoot;
											y5 = baseline-capOvershoot;
											y7 = y8 = HHeight/2;
											% on initialise
											path curv[],  cut[];
											% les deux demi-cercles
											curv1 = z1..z2..z3;
											curv2 = z4..z5..z6;
											draw curv1 withcolor col;
											draw curv2 withcolor col;
											% les segments 
											cut1 = z6--z7--z8;
											cut2 =z3--z4;
											draw cut1 withcolor col;
											draw cut2 withcolor col;
										endchar(8);

										%H - Thomas B puis Jeanne puis Julie OK
										beginchar(72,4,1,1);
											width := 4ux;
											x1 = x2 = x3 = 0ux ;
											x4 = x5 = x6 = width;
											y1 = y6 = baseline;
											y3 = y4 = HHeight/2;
											y2 = y5 = HHeight;
											draw z1--z2--z3--z4--z5--z6 withcolor col;
										endchar(6);

										%I - Marie Lec puis Jeanne puis Julie OK
										beginchar(73,4,1,1);
											width := 1ux;
											x1 = x2 = 2ux;
											y1 = baseline;
											y2 = HHeight;
											draw z1 -- z2 withcolor col;
										endchar(2);


										%J Jeanne OK
										beginchar (74,2.5,1,1);
											width:=2.5ux;
											x1=x2=width;
											x3=width/2;
											x4=baseline;
											y1=HHeight;
											y2=1uy;
											y3=-0.25uy;
											y4=0.25uy;

											path curv[],  cut[];
											curv1=z4..z3..z2;
											draw curv1 withcolor col;
											cut1=z2--z1;
											draw cut1 withcolor col;

										endchar(4)
										%J - Julie
										%beginchar(74,4,1,1);
										%x1 = x2 = 4ux;
										%x3 = 2.25ux;
										%x4 = 0.5ux;
										%y1 = 6uy;
										%y2 = 2uy;
										%y3=0uy;
										%y4 = 1.5uy;
										%draw z1--z2{down}..z3..z4 withcolor col;
										%endchar(4);

										%K - Eloïse Vo puis JeanneOK
										beginchar(75,4,1,1);
											width := 4ux;
											x1 = x2 = x3 = baseline;
											x4 = 1.6ux;
											x5 = x6 = width;

											y1 = y6 = baseline;
											y3 = y5 = HHeight;
											y4 = 3.5uy;
											y2 = HHeight/3;
											draw z1--z2--z3 withcolor col;
											draw z2--z5 withcolor col;
											draw z4--z6 withcolor col;

										endchar(6);

										%L - Louis puis Jeanne puis Julie OP
										beginchar(76,3,1,1);
											width := 3ux;
											x1 = x2 = 0ux;
											x3 = width;
											y1 = HHeight;
											y2 = y3 = baseline;
											draw z1--z2--z3 withcolor col;
										endchar(3);

										%M - Mathilde puis Jeanne OK
										beginchar(77,5,1,1);
											width := 5ux;
											x1 = x2 = baseline;
											x4 = x5 = width;
											x3 = width/2;
											y1 = y5 = baseline; 
											y2 = y4 = HHeight;
											y3 = 1uy; 
											draw z1--z2--z3--z4--z5 withcolor col;
										endchar(5);

										%N - Nsfiseh puis Jeanne OK
										beginchar(78,4,1,1);
											width := 4ux;
											x1 = x2 = baseline;
											x3 = x4 = width;

											y1 = y3 = baseline;
											y2 = y4 = HHeight;
											draw z1--z2--z3--z4 withcolor col;
										endchar(4);

										%O - OLIVIER
										beginchar(79,4,1,1);
											widthO = 4.5ux;
											% les points
											x1 = x6 = r*ux*2;
											x2 = x5 = r*ux;
											x3 = x4 = baseline;
											y1 = y3 = HHeight -(r*ux)+  capOvershoot;
											y2 = HHeight + capOvershoot;
											y4 = y6 = r*ux-capOvershoot;
											y5 = baseline-capOvershoot;
											% on initialise
											path curv[],  cut[];
											% les deux demi-cercles
											curv1 = z1..z2..z3;
											curv2 = z4..z5..z6;
											draw curv1 withcolor col;
											draw curv2 withcolor col;
											% les segments 
											cut1 = (x1,y1){bottom}--(x6,y6);
											cut2 =(x3,y3)--(x4,y4);
											draw cut1 withcolor col;
											draw cut2 withcolor col;
										endchar(6);

										%P - Pierre H - Hugo
										beginchar(80,4,1,1);
											width := 4ux;
											x1 = x6 = x2 = baseline;
											x3 = x5 = 2.5ux;
											x4 = width;
											y1 =  baseline;
											y6 = y5 = HHeight/2;
											y4 = 4.5uy;
											y3 = y2 = HHeight;
											% on initialise
											path curv[],  cut[];
											%demi-cercle
											curv1 = z3..z4..z5;
											draw curv1 withcolor col;
											% les segments 
											cut1 =z2--z3;
											cut2 =z6--z5;
											cut3 =z1--z2;
											draw cut1 withcolor col;
											draw cut2 withcolor col;
											draw cut3 withcolor col;
										endchar(6);


										%Q - Pierre M - H   OK sauf pour x8
										beginchar(81,4,1,1);
											widthQ = 4.5ux;
											% les points
											x1 = x6 = r*ux*2;
											x2 = x5 = r*ux;
											x3 = x4 = baseline;
											x7 = HHeight/2;
											x8 = 5.5ux;
											y1 = y3 = HHeight -(r*ux)+  capOvershoot;
											y2 = HHeight + capOvershoot;
											y4 = y6 = r*ux-capOvershoot;
											y5 = y8 = baseline-capOvershoot;
											y7 = HHeight/4;
											% on initialise
											path curv[], cut[], crop[];
											% les deux demi-cercles
											curv1 = z1..z2..z3;
											curv2 = z4..z5..z6;
											draw curv1 withcolor col;
											draw curv2 withcolor col;
											% les segments 
											cut1 = (x1,y1){bottom}--(x6,y6);
											cut2 =(x3,y3)--(x4,y4);
											cut3 = z7--z8;
											draw cut1 withcolor col;
											draw cut2 withcolor col;
											% le segment oblique 
											draw cut3 withcolor col;


										endchar(8);

										%R - CORENTIN - Hugo
										beginchar(82,4,1,1);
											width := 4ux;
											x1 = x6 = x2 = baseline;
											x3 = x5 = x7 = 2.5ux;
											x4 = x8 = width;
											y1 = y8 = baseline;
											y6 = y5 = y7 = HHeight/2;
											y4 = 4.5uy;
											y3 = y2 = HHeight;
											% on initialise
											path curv[], cut[], crop[];
											% demi-cercle
											curv1 = z3..z4..z5;
											draw curv1 withcolor col;
											% les segments 
											cut1 = z1--z2;
											cut2 =z2--z3;
											cut3 = z5--z6;
											cut4 = z5--z8;
											draw cut1 withcolor col;
											draw cut2 withcolor col;
											draw cut3 withcolor col;
											draw cut4 withcolor col;
										endchar(8);


										%S - HUGO + Pierre + Dorian (hardcore jusqu'à la mort)

										beginchar(83,5,);

											pickup pencircle scaled 0.01u;

											width = 4ux;
											rabove = 3.5uy;
											rleft = rright = 1.5ux;
											rbelow = 4.5uy;

											abovexh = 1.7ux;
											belowxh = 2.0ux;

											%centers of the two big circles
											z1 = (width/2, HHeight + capOvershoot - rabove);
											z4 = (width/2, baseline - capOvershoot + rbelow); 

											%finding the center of the left-above circle
											decalz2 = abovexh - rleft;
											x2 = (width/2) - decalz2;
											%y2 = y1 + sqrt((rabove - rleft)*(rabove - rleft) - (decalz2*decalz2)); 
											%there is a shortcut for doing pythagore sqrt((a*a)-(b*b)) which is a+-+b
											y2 = y1 + ((rabove - rleft)+-+(decalz2)); 

											%finding the center of the right-below circle
											decalz3 = belowxh - rright;
											x3 = (width/2) + decalz3;
											y3 = y4 - ((rbelow - rright)+-+(decalz3)); 

											%creating 2 quartercircles for every one of the 4 circles
											path above[] ,left[], right[], below[];
											above1 = quartercircle xscaled (-2*rabove) yscaled (2*rabove) shifted z1;
											above2 = quartercircle xscaled (2*rabove) yscaled (2*rabove) shifted z1;
											left1 = quartercircle xscaled (-2*rleft) yscaled (2*rleft) shifted z2;
											left2 = quartercircle xscaled (-2*rleft) yscaled (-2*rleft) shifted z2;
											right1 = quartercircle xscaled (2*rright) yscaled (-2*rright) shifted z3;
											right2 = quartercircle xscaled (2*rright) yscaled (2*rright) shifted z3;
											below1 = quartercircle xscaled (2*rbelow) yscaled (-2*rbelow) shifted z4;
											below2 = quartercircle xscaled (-2*rbelow) yscaled (-2*rbelow) shifted z4;

											draw above1 withcolor col;
											draw above2 withcolor red;
											draw left1 withcolor col;
											draw left2 withcolor red;
											draw right1 withcolor col;
											draw right2 withcolor col;
											draw below1 withcolor colro;
											draw below2 withcolor red;

											path cut[];

											%dioganal cut lines
											cut1 = z1--2[z1,z2];
											cut2 = z4--2[z4,z3];

											%vertical cut lines
											cut3 = (width/2, baseline-capOvershoot)--(width/2, HHeight+capOvershoot);
											cut4 = cut3 shifted(+1.5ux,0);
											cut5 = cut3 shifted(-2ux,0);

											%the middle joint cut
											% note: the magictheta is not correct it's an estimation
											z5 = .5[z2,z3];
											magictheta = 75;
											z6 = directionpoint dir (270+magictheta) of left2;
											z7 = directionpoint dir (-270+magictheta) of right2;
											cut6 = z2--2[z2,z6];
											cut7 = z3--2[z3,z7];

											%the full circles
											path circle[];
											circle1 = fullcircle scaled (2*rleft) shifted z2;
											circle2 = fullcircle scaled (2*rright) shifted z3;
											draw circle1;
											draw circle2;

											draw cut1;
											draw cut2;
											draw cut3;
											draw cut4;
											draw cut5;
											draw cut6;
											draw cut7;

											path arc[];

											%two parts of top left curve
											arc1 = above1 cutbefore cut1;
											arc2 = left1 cutafter cut1;

											%two parts of bottom right curve
											arc3 = below1 cutbefore cut2;
											arc4 = right1 cutafter cut2;

											%top right arc
											arc5 = above2 cutbefore cut4;
											%bottom left arc
											arc6 = below2 cutbefore cut5;

											%two middle joint parts
											arc7 = left2 cutafter cut6;
											arc8 = right2 cutafter cut7;

											pickup pencircle scaled 0.1u;
											draw arc1;
											draw arc2;
											draw arc3;
											draw arc4;
											draw arc5;
											draw arc6;
											draw arc7;
											draw arc8;
											draw z6--z7;

										endchar(7);

										%T - Timothée  puis Jeanne puis Julie
										beginchar(84,4,1,1); 
											width := 3.5ux;
											x1 = baseline*uy;
											y1 = y2 = HHeight;
											y3 = HHeight;
											x2 = 4ux;
											x3 = x4 = width/2;
											y4 = baseline;
											draw z1--z2 withcolor col;
											draw z3--z4 withcolor col;
										endchar(4); 

										%U - Juliette F.- H
										beginchar(85,4, 1, 1);
											widthO = 4.5ux;
											% les points
											x1 = x6 = r*ux*2;
											x2 = x5 = r*ux;
											x3 = x4 = baseline;
											y1 = y3 = HHeight;
											y2 = HHeight + capOvershoot;
											y4 = y6 = r*ux-capOvershoot;
											y5 = baseline-capOvershoot;
											% on initialise
											path curv[],  cut[];
											% les deux demi-cercles
											curv1 = z4..z5..z6;
											draw curv1 withcolor col;
											% les segments 
											cut1 = (x1,y1){bottom}--(x6,y6);
											cut2 =(x3,y3)--(x4,y4);
											draw cut1 withcolor col;
											draw cut2 withcolor col;
										endchar(6);


										%V - Manon puis Jeanne OK
										beginchar(86,4,1,1);
											width := 4ux;
											x1 = baseline;
											x2 =width/2;
											x3=width;
											y1=y3=HHeight;
											y2=baseline;

											draw z1--z2--z3 withcolor col;
										endchar(3);

										%W - Jules puis Jeanne OK
										beginchar(87,7,1,1);
											width := 7ux;
											x1 = baseline;
											x2 = 1.75ux;
											x3 = 3.5ux;
											x4 = 5.25ux;
											x5 = width;
											y1 = y3 = y5 = HHeight;
											y2 = y4 = baseline;
											draw z1 -- z2 -- z3 -- z4 -- z5 withcolor col;
										endchar(5);

										%X - Drice puis Jeanne OK
										beginchar(88,4,1,1);
											width := 4ux;
											x1=x3=baseline;
											x4=x2=width;
											y1=y4=HHeight;
											y3=y2=baseline;
											draw z1--z2 withcolor col;
											draw z4--z3 withcolor col;
										endchar(4);

										%Y - Yeelena puis Jeanne OK
										beginchar(89,4,1,1);
											width := 4ux;
											x1=baseline;
											x2=x4=width/2;
											x3=width;
											y1=y3=HHeight;
											y2=2.5uy;
											y4=baseline;
											draw z1--z2--z3 withcolor col;
											draw z2--z4 withcolor col;
										endchar(4); 

										%Z - Zeste puis Jeanne OK
										beginchar(90,4,1,1);
											width := 4ux;
											x3=baseline;
											x1=0.25ux;
											x2=x4=width;
											y1=y2=HHeight;
											y3=y4=baseline;
											draw z1--z2--z3--z4 withcolor col;
										endchar(4);

										%& - Pierre F
										beginchar(38,6,1,1);
											x1 = 5ux;
											y1 = 3uy;
											x2 = 3ux;
											y2 = 0uy;
											x3 = 0ux;
											y3 = 0uy;
											x4 = 0ux;
											y4 = 2uy;
											x5 = 2ux;
											y5 = 3uy;
											x6 = 3ux;
											y6 = 4uy;
											x7 = 0ux;
											y7 = 4uy;
											x8 = 1ux;
											y8 = 3uy;
											x9 = 6ux;
											y9 = 0uy;
											path p;    p := dir(-30)--dir(90)--dir(210)--cycle;   

											% On transforme ce chemin en plume.    %pen pentriangle;    %%pentriangle := makepen(p);    % On teste notre plume    draw (0,0)--(20, 20) withpen pentriangle scaled 3;
											%pickup penrazor scaled 1ux rotated 30;
											draw z1..z2..z3..z4..z5..z6..z7..z8..z9 withcolor black;
										endchar(9);

										%@ - Pierre F
										beginchar(64,8,1,1);
											x1 = 7ux;
											y1 = -1uy;
											x2 = 4ux;
											y2 = -2uy;
											x3 = 0ux;
											y3 = 2uy;
											x4 = 4ux;
											y4 = 6uy;
											x5 = 7ux;
											y5 = 1uy;
											x6 = 5ux;
											y6 = 0uy;
											x7 = 5ux;
											y7 = 4uy;
											x8 = 2ux;
											y8 = 2uy;
											x9 = 4ux;
											y9 = 0uy;

											path p;    p := dir(-30)--dir(90)--dir(210)--cycle;   

											% On transforme ce chemin en plume.    %pen pentriangle;    %pentriangle := makepen(p);    % On teste notre plume    %draw (0,0)--(20, 20) withpen pentriangle scaled 3;
											%pickup penrazor scaled 1ux rotated 30;

											draw z1..z2..z3..z4..z5..z6--z7..z8..z9 withcolor black;
										endchar(9);

										% The drop of the a starts with an arcpart with radius 4.5,
										% then a quartercircle with radius 1.5
										% The left side of th belly is a curve with radius 1 (or, half of the bellyHeight)
										% The right side of the belly is a quartercircle with the same radius as the left
										% side of the belly
										% The 'tail?' of the a is a circle with radius 1, position unclear.
										%%a - Gijs
										%beginchar(97,3.5);
										%path dropLeft, dropRight, bellyLeft, bellyRight, tail, tailShifted, cutlineDrop, cutlineTail;
										%pair tailIntersection;
										%bellyHeight = .5 * xHeight;
										%rb = .5 * bellyHeight; % radius belly
										%rdl = 4.5; % Radius drop left
										%rdr = 1.5; % Radius drop right
										%rTail = 1; % Radius tail
										%
										%cutoffsetDrop = 1.25;
										%cutoffsetTail = 0.5;
										%
										%cutlineDrop = ((1.5 - cutoffsetDrop) * ux, (baseline + descHeight) * uy) -- ((1.5 - cutoffsetDrop) * ux, (baseline + capHeight) * uy);
										%cutlineTail = (cutoffsetTail * ux, (baseline + descHeight) * uy) -- (cutoffsetTail * ux, (baseline + capHeight) * uy);
										%
										%% Easier strategy below
										%%% The tail should touch the baseline when it's cut off.
										%%% We can use the cosine to calculate the vertical travel of the tail
										%%% at the cutoff point.
										%%% Divide the cutoff by the radius of the tail to retreive at how much radians
										%%% the cutoff point lies and transform it to degrees to calculate the cosine
										%%tailYPos = cosd ((cutoffsetTail / rTail) * (180 / 3.1415926535)); % How to find that number?
										%
										%dropLeft = quartercircle xscaled (-2rdl * ux) yscaled (2rdl * uy) shifted(1.5ux, (xHeight - rdl) * uy + xOvershoot);
										%dropRight = reverse quartercircle xscaled (2rdr * ux) yscaled (2rdr * uy) shifted (1.5ux, (xHeight - 1.5) * uy + xOvershoot);
										%bellyLeft = halfcircle xscaled (2rb * ux) yscaled (2rb * uy) rotated 90 shifted (rb * ux, rb* uy);
										%bellyRight = reverse quartercircle xscaled (2rb * ux) yscaled (-2rb * uy) shifted (2rb * ux, rb* uy);
										%
										%% Draw the tail, and cut it off
										%tail = quartercircle xscaled (-2rTail * ux) yscaled (-2rTail * uy) shifted (rTail * ux, rTail * uy);
										%tailIntersection = tail intersectionpoint cutlineTail;
										%tailShifted = (tail cutafter cutlineTail) shifted (3ux, (baseline * uy) - ypart tailIntersection);
										%
										%draw (3ux, bellyHeight * uy) -- bellyLeft -- bellyRight; %-- dropRight -- dropLeft cutafter cutlineDrop;
										%draw dropLeft cutbefore cutlineDrop -- dropRight -- tailShifted;

										% draw cutlineDrop withcolor red;
										% draw cutlineTail withcolor red;

										%endchar(3.5);



										%a - Marie
										beginchar (97,4,1,1);
											x1 = 0.2ux;
											x2 = 1.5ux; 
											x3 =  x9  = x10 = 3ux;
											x4 = 3.5ux;
											x5 = 2ux;
											x6 = x8 = 1ux;
											x7 = 0ux;
											y1 = 3.8 uy;
											top y2 = 4uy + (strokeY / 4);
											y3  = 0.5uy;
											bot y4 = 0ux;
											bot y5 = bot y6 = 0uy - (strokeY / 4);
											y7 = 1uy;
											y8 = y9 = 2uy;
											y10 = 2.5 uy;
											draw z1 ..  z2{right}.. {down}z10 -- z9 -- z3{dir -60}.. z4 withcolor col;
											draw z9{left}-- z8{left}.. z7 .. z6{right}-- z5{right}.. z3 withcolor col;
										endchar(10)



										%b Jeanne OK
										%beginchar (98,3,1,1);
										%
										%width:=3ux;
										%  x1 = x4 = HHeight/4;
										%    x2 = x3 = width;
										%    x5 = x6 =  x7 = x8 =baseline;
										%    y1 =y7= baseline;
										%    y2 = y6 = HHeight/4;
										%    y3 = y5 = 2.5uy;
										%    y4 =  xHeight*uy;
										%    y8 = HHeight;
										% % on initialise
										%      path curv[], cut[], crop[];
										%    % les deux demi-cercles
										%      curv1 = z3{dir deg}..z4..z5;
										%      curv2 = z2..z1..z6;
										%      draw curv1 withcolor col;
										%      draw curv2 withcolor col;
										%    % les segments 
										%      cut1 = z2--z3;
										%      cut2 = z5--z6;
										%      cut3 = z7--z8;
										%      draw cut1 withcolor col;
										%      draw cut2 withcolor col;
										%     draw cut3 withcolor col;

										%endchar(8)

										%b - Eugénie
										beginchar (98,3,1,1);
											x1=x2=x3=x7= 0ux;
											y1= 6uy;
											bot y2= 0uy;
											y3=y5= 1.5uy;
											bot y6 = 0uy  - (strokeY / 4);
											x4=x6= 1.5ux;
											y4= 4uy;
											x5=x8= 3ux;
											y7=y8= 2.5uy;
											draw z1 -- z2 -- z3 -- z7{dir 90} .. z4{dir 0} .. z8{dir -90} -- z5 {dir -90} .. z6{dir 180} .. z3{dir 90} withcolor col;
										endchar(8);

										%c - Gijs
										% The lowercase c is essentially a halfcircle on top and a half circle on the bototm
										% on the left those two halfcircles are connected
										% on the right they are cut off
										beginchar(99,3);
											path bottom, top, cutline;
											% Radius of the circle, on top and bottom of the c
											rc = 1.5;
											% Distance between the centerpoint of the circles in the c
											% and the cutline
											cutoffset = 1;
											% Where to cut-off the c, vertical line: radius + 1
											cutline = ((rc + cutoffset) * ux, baseline * uy - xOvershoot) -- ((rc + cutoffset) * ux, xHeight  * uy + xOvershoot);
											% Radius is 1.5, but halfcircle expressed in diameter
											top = halfcircle xscaled (2rc * ux) yscaled (2rc * uy) shifted (rc * ux, (xHeight - rc) * uy + xOvershoot);
											% Avoid using a rotation with a negative yscale, but,
											% for correct order in points, also negative xscale
											bottom = halfcircle xscaled (-2rc * ux) yscaled (-2rc* uy) shifted (rc * ux, rc * uy);
											draw top cutbefore cutline .. bottom cutafter cutline;
										endchar(3)

										%%c - Louis
										%beginchar(99,3,1,1);
										%x1 = 3ux;
										%x2 = 2ux;
										%x3 = x4 = 0ux;
										%x5 = 2ux;
										%x6 = 3ux;
										%y1 = 2.5uy;
										%y2 = 3.75uy;
										%y3 = 2uy;
										%y4 = 1uy;
										%y5 = 0uy;
										%y6 = 1uy;


										%% draw z1..z2..z3--z4..z5..z6 withcolor col;
										% path smol;
										%  smol = z1..z2..z3--z4;
										% draw smol withcolor red;
										%pickup pensquare scaled 14;
										% draw subpath(0.5,3) of smol withcolor col;
										%  path smollow;
										%  smollow = z6..z5..z4--z3;
										% % draw smollow withcolor red;

										%  draw subpath(0.5,3) of smollow withcolor col;
										% endchar(3);

										%d - dorian / Jeanne OK

										beginchar(100,3,1,1);
											width:=3ux;
											x1 = x4 = 1.5ux;
											x2 = x3 = x7 = x8 = width;
											x5 = x6  = baseline;
											y1 =y7= baseline;
											y2 = y6 = HHeight/4;
											y3 = y5 = 2.5uy;
											y4 =  xHeight*uy;
											y8 = HHeight;
											draw z8 -- z7 -- z2 -- z3{dir 90} .. z4{dir 0} .. z5{dir -90} -- z5 {dir -90} .. z6{dir 180} .. z3{dir 90} withcolor col;

										endchar(8);

										%e - Eugénie then Gijs
										beginchar(101,3,1,1);
											x1=x2= 0ux;
											y6= 0uy;
											y1=y5= 2uy;
											y2=y4= 2.5uy;
											x3=x6= 1.5ux;
											y3= 4uy;
											x4=x5=x7= 3ux;
											y7= 0.5uy;
											draw z7 .. z6{dir180} .. z1{dir80} -- z2{dir 90} .. z3{dir 0} .. z4{dir -90} -- z5 -- z1 withcolor col;
										endchar(7);

										% The e is a halfcircle on top with radius r, 
										% on the bottom left a quartercircle with radius r,
										% on the bottom right a quartercircle with a bigger radius (r * 3?)
										% until the cutoff line, a vertical line, on the right outer point of the top circle
										%beginchar(101,3);
										%
										%path top, bottomLeft, bottomRight, cutline;
										%
										%% Radius of the circle, on top of the e
										%re := 1.5;
										%
										%% Radius of the larger line, radius of the right part of the bottomRight
										%rLarge := 3re;
										%
										%% Vertical position of the bar
										%hPos = .5xHeight;
										%
										%% Distance between the centerpoint of the circles in the e
										%% and the cutline
										%cutoffset = 1.5;
										%
										%% Where to cut-off the c, vertical line: radius + 1
										%cutline = ((re + re) * ux, baseline * uy - xOvershoot) -- ((re + re) * ux, xHeight  * uy + xOvershoot);
										%
										%% Radius is 1.5, but halfcircle expressed in diameter
										%top = halfcircle xscaled (2re * ux) yscaled (2re * uy) shifted (re * ux, (xHeight - re) * uy + xOvershoot);
										%
										%% Avoid using a rotation with a negative yscale, but,
										%% for correct order in points, also negative xscale
										%bottomLeft = quartercircle xscaled (-2re * ux) yscaled (-2re * uy) shifted (re * ux, re * uy);
										%
										%bottomRight = reverse quartercircle xscaled (2rLarge * ux) yscaled (-2rLarge * uy) shifted (r * ux, rLarge * uy);
										%
										%draw (0, hPos * uy) -- ((2re * ux), hPos * uy) -- top -- bottomLeft .. bottomRight cutafter cutline;
										%%draw cutline;
										%
										%endchar(101);

										%f - Marie Lec puis Julie pas ok
										beginchar(102,4,1,1);
											r := 1u;
											leftTraverse := 0.5ux;
											width := leftTraverse + r;
											x1 = x2 = leftTraverse;
											x3 = x5 = width;
											x4 = 0ux;
											y1 = baseline;
											y2 = ascxHeight;
											y3 = r;
											y4 = y5 = xHeight*ux;
											draw z1..z2{up}..z3 withcolor col;
											draw z4--z5 withcolor col;
										endchar(5);


										%g - Gaby/ Jeanne OK
										beginchar(103,3,1,1);
											width := 3ux;
											x1 = x4 = 1.5ux;
											x2 = x3 = x7 = x8 = width;
											x5 = x6  = x10 = baseline;
											x9 = width/2;

											bot y1 = 0uy  - (strokeY / 4);
											y8  = baseline;
											y2 = y6 = HHeight/4;
											y3 = y5 = 2.5uy;
											y4 = y7= xHeight*uy;
											y10=-1.5uy;
											bot y9= -2uy - (strokeY / 4);

											% on initialise
											path curv[], cut[], crop[];
											% les demi-cercles  
											curv1 = z4{right}..{down}z3;
											curv2 = z4{left}..{down}z5;
											curv3 = z6{down}..{right}z1;
											curv4 = z2{down}..{left}z1;
											curv5 = z8{down}..z9..z10;
											draw curv1 withcolor col;
											draw curv2 withcolor col;
											draw curv3 withcolor col;
											draw curv4 withcolor col;
											draw curv1 withcolor col;
											draw curv2 withcolor col;
											draw curv5 withcolor col;

											% les segments 
											%cut1 = z2--z3;
											cut2 = z5--z6;
											cut3 = z7--z8;
											%draw cut1 withcolor col;
											draw cut2 withcolor col;
											draw cut3 withcolor col;
										endchar(10);


										%h - Jeanne Borto Hugo (sorry je recole mon n haha)
										beginchar(104,3,1,1)
											widthh:= 3ux;
											% les points
											x1 = x2 = x3 = baseline;
											x5 = x6 = widthh;
											x4 = 1.5ux;
											y1 = y6 = baseline * uy;
											y2 = HHeight;
											y4 = xHeight * uy;
											y3 = y5 = 2.5uy; 
											% on initialise
											path curv[], cut[], crop[];
											% les deux demi-cercles
											curv1 = z3..z4..z5;
											draw curv1 withcolor col;
											% les segments 
											cut1 = z1--z2;
											cut2 = z5--z6;
											draw cut1 withcolor col;
											draw cut2 withcolor col;
										endchar(6);

										%i - Eugénie puis Julie
										beginchar(105,0,1,1);
											width := 1ux;
											x1=x2=x3= 0ux;
											y1= baseline;
											y2= HHeight/2;
											y3=HHeight;
											draw z1 -- z2 withcolor col;
											draw z3 withcolor col;
										endchar(3);

										%j - Juliette F.
										beginchar (106, 3,1,1);
											x4 = 1ux;
											x3 = x2 = x1 = 2ux;
											y4 = -2uy;
											y3 = -1uy;
											y2 = 4uy;
											y1 = 6uy;
											draw z1 withcolor col;
											draw z2--z3{dir 270}...{dir 180}z4 withcolor col;
										endchar(5);

										%k - Thomas puis Jeanne OK
										beginchar(107,3,1,1);
											width:=3ux;
											x1 = x2 = x3 = baseline;
											x4 = 1.3ux;
											x5 = x6 = width;
											y1=y6 = baseline;
											y2 = 0.8uy;
											y3 = HHeight;
											y4 = 2.2uy;
											y5 = xHeight*uy;

											draw z1--z3 withcolor col;
											draw z2--z5 withcolor col;
											draw z4--z6 withcolor col;

										endchar(6);

										%l Jeanne OK
										beginchar(108,2,1,1);
											r:=1u;
											leftTraverse := 0.5ux;
											width := leftTraverse + r;
											x1 = x2 =leftTraverse;
											x3 = width;
											y1= ascxHeight;
											y2 = r;
											y3 = baseline;
											draw z1--z2{down}..{right}z3 withcolor col;
										endchar(3)

										%l -  Manon 
										%beginchar(108,1,1,1);
										%y1= 0ux;
										%y2= 6ux;
										%draw z1--z2; withcolor red;
										%endchar(2);

										%m - Mathilde - Hugo OK (sauf pour 2.5uy
										beginchar(109,6,1,1);
											widthm = 6ux;
											% les points
											x1 = x3 = x2 = baseline;
											x8 = x5 = 3ux;
											x9 = x7 = 6ux;
											x4 = 1.5ux;
											x6 = 4.5ux;
											bot y1 = bot y8 = bot y9 = baseline * uy;
											y2 = y4 = y6 = xHeight * uy;
											y3 = y5 = y7 = 2.5uy; 
											% on initialise
											path curv[], cut[], crop[];
											% les deux demi-cercles
											curv1 = z4{left}..{down}z3;
											curv2 = z4{right}..{down}z5;
											curv3 = z6{left}..{down}z5;
											curv4 = z6{right}..{down}z7;
											draw curv1 withcolor col;
											draw curv2 withcolor col;
											draw curv3 withcolor col;
											draw curv4 withcolor col;
											% les segments 
											cut1 = z1--z2;
											cut2 = z5--z8;
											cut3 = z7--z9;
											draw cut1 withcolor col;
											draw cut2 withcolor col;
											draw cut3 withcolor col;
										endchar(9);

										%n  - Hugo
										beginchar(110,3,1,1);
											widthn = 3ux;
											% les points
											x1 = x2 = x3 = baseline;
											x5 = x6 = widthn;
											x4 = 1.5ux;
											bot y1 = bot y6 = baseline * uy;
											y2 = xHeight * uy;
											y3 = y5 = 2.5uy; 
											%y4 = 4uy + (strokeY / 4);
											y4 = 4uy + (strokeY / 4);
											% on initialise
											path curv[], cut[], crop[];
											% les deux demi-cercles
											curv1 = z4{left}..{down}z3;
											curv2 = z4{right}..{down}z5;
											draw curv1 withcolor col;
											draw curv2 withcolor col;
											% les segments 
											cut1 = z1--z2;
											cut2 = z5--z6;
											draw cut1 withcolor col;
											draw cut2 withcolor col;
										endchar(6);

										%o - Thomas - Hugo  OK
										beginchar(111,3,1,1);
											widtho = 3ux;
											x1 = x4 = 1.5ux;
											x2 = x3 = widtho;
											x5 = x6 = baseline;
											bot y1 = 0uy - (strokeY / 4);
											y2 = y6 = HHeight/4;
											y3 = y5 = 2.5uy;
											y4 = 4uy + (strokeY / 4);
											%top  y4 = 4uy + (strokeY / 4);
											% on initialise
											path curv[], cut[], crop[];
											% les deux demi-cercles
											curv1 = z4{right}..{down}z3;
											curv2 = z4{left}..{down}z5;
											curv3 = z6{down}..{right}z1;
											curv4 = z2{down}..{left}z1;
											draw curv1 withcolor col;
											draw curv2 withcolor col;
											draw curv3 withcolor col;
											draw curv4 withcolor col;
											% les segments 
											cut1 = z2--z3;
											cut2 = z5--z6;
											draw cut1 withcolor col;
											draw cut2 withcolor col;
										endchar(6);

										%p - Oceane - Hugo
										beginchar (112,3,1,1);
											widtho = 3ux;
											x1 = x4 = HHeight/4;
											x2 = x3 = widtho;
											x5 = x6 = x7 = x8 = baseline;
											y1 = baseline;
											y2 = y6 = HHeight/4;
											y3 = y5 = 2.5uy;
											y4 = y7= xHeight*uy;
											y8 = descHeight*uy;
											% on initialise
											path curv[], cut[], crop[];
											% les deux demi-cercles
											curv1 = z3..z4..z5;
											curv2 = z2..z1..z6;
											draw curv1 withcolor col;
											draw curv2 withcolor col;
											% les segments 
											cut1 = z2--z3;
											cut2 = z5--z6;
											cut3 = z7--z8;
											draw cut1 withcolor col;
											draw cut2 withcolor col;
											draw cut3 withcolor col;
										endchar(8);

										%q - Julie - Hugo 
										beginchar(113,3,1,1);
											widthq = 3ux;
											x1 = x4 = HHeight/4;
											x2 = x3 = x7 = x8 = widthq;
											x5 = x6  = baseline;
											y1 = baseline;
											y2 = y6 = HHeight/4;
											y3 = y5 = 2.5uy;
											y4 = y7= xHeight*uy;
											y8 = descHeight*uy;
											% on initialise
											path curv[], cut[], crop[];
											% les deux demi-cercles
											curv1 = z3..z4..z5;
											curv2 = z2..z1..z6;
											draw curv1 withcolor col;
											draw curv2 withcolor col;
											% les segments 
											cut1 = z2--z3;
											cut2 = z5--z6;
											cut3 = z7--z8;
											draw cut1 withcolor col;
											draw cut2 withcolor col;
											draw cut3 withcolor col;
										endchar(8);

										%r -CORENTIN
										beginchar(114,4,1,1);
											x1 = x2 = x3 = 0ux;
											x4 = 1ux;
											x5 = 2ux;
											y1 = y4 = 4uy;
											y2 = 0uy;
											y3 = y5 = 3uy;
											draw z1--z2--z3{up}..z4{right}..z5{down} withcolor blue;
										endchar(5);

										%s - HUGO puis Pierre
										beginchar(115,4,1,1);
											xHeight := 4;
											%        ascHeight := 8;
											%        descHeight := -2;
											%        capHeight := 6;
											%        capOvershoot := 0.15;
											%        xOvershoot := 0.1;

											path bottom, top;

											%cutline = (2.5ux, (baseline-xOvershoot)uy) -- (2.5ux, (xHeight + xOvershoot)uy);

											%draw cutline;

											bottom = halfcircle  shifted (1.5ux, (1.5-xOvershoot)uy) xscaled 1.5uy yscaled 1.5uy  rotated 180;

											draw bottom;

										endchar(3)


										%x1 = 2ux;
										%x2 = 2ux;
										%x3 = 0ux;
										%x4 = 0ux;
										%x5 = 2ux;
										%x6 = 4ux;
										%x7 = 4ux;
										%x8 = 3ux;
										%y1 = 8uy;
										%y2 = 6uy;
										%y3 = 4uy;
										%y4 = 2uy;
										%y5 = 0uy;
										%y6 = 2uy;
										%y7 = 4uy;
										%y8 = 5uy;
										%x9 = 2ux;
										%x10 = 2ux;
										%x11 = 4ux;
										%x12 = 4ux;
										%x13 = 2ux;
										%x14 = 0ux;
										%x15 = 0ux;
										%x16 = 1ux;
										%y9 = 2uy;
										%y10 = 4uy;
										%y11 = 6uy;
										%y12 = 8uy;
										%y13 = 10uy;
										%y14 = 8uy;
										%y15 = 6uy;
										%y16 = 5uy;
										%draw z1--z2--z3--z4--z5--z6--z7--z8 withcolor red;
										%draw z9--z10--z11--z12--z13--z14--z15--z16 withcolor red;
									endchar(16);

									%t - Hannah puis Pierre et Julie - OK
									beginchar(116,4,1,1);
										r := 1u;
										leftTraverse := 0.5ux;
										width := leftTraverse + r;
										x4 = 0;
										x1 = x2 = leftTraverse;
										x3 = x5 = width;
										y1= ascxHeight;
										y4 = y5 = xHeight*ux;
										y2 = r;
										y3 = baseline;
										draw z1--z2{down}..{right}z3 withcolor col;
										draw z4--z5 withcolor col;
									endchar(5);

									%u - Zeste - Hugo
									beginchar(117,3,1,1);
										widthu = 3ux;
										x1 = x4 = HHeight/4;
										x2 = x3 = widthu;
										x5 = x6 = baseline;
										y1 = baseline;
										y2 = y6 = HHeight/4; 
										y3 = y5 = y4 = xHeight*uy;
										% on initialise
										path curv[], cut[], crop[];
										% les deux demi-cercles
										curv1 = z2..z1..z6;
										draw curv1 withcolor col;
										% les segments 
										cut1 = z2--z3;
										cut2 = z5--z6;
										draw cut1 withcolor col;
										draw cut2 withcolor col;
									endchar(6);

									%v - Manon puis Jeanne OK?
									beginchar (118,3,1,1);
										width:=3ux;
										x1 = baseline;
										x2 =1.5ux;
										x3=width;
										y1=y3=xHeight*uy;
										y2=baseline;
										draw z1--z2--z3 withcolor col;
									endchar(3);

									%w - Oceane puis Jeanne OK
									beginchar (119,6,1,1);
										width:=6ux;
										x1=baseline;
										x2=1.5ux;
										x3=width/2;
										x4=4.5ux;
										x5=width;
										y1=y3=y5=xHeight*uy;
										y2=y4=baseline;
										draw z1--z2--z3--z4--z5 withcolor col;
									endchar(5);

									%x- THM puis Jeanne OK
									beginchar (120,3,1,1);
										width:=3ux;
										x1 = x3 = baseline;
										x2 = x4 = width;
										y1 = y4 = baseline;
										y2 = y3= xHeight*uy;
										draw z1--z2 withcolor col;
										draw z3--z4 withcolor col;
									endchar(4);

									%y - Zeste
									beginchar (121,3,1,1);
										x1 = 0ux;
										y1 = 4uy;
										x2 = 1.5ux;
										y2 = 0uy;
										x3 = 3ux;
										y3 = 4uy;
										x4 = 1.2ux;
										y4 = -1uy;
										x5 = 0ux;
										y5 = -2uy;
										draw z1--z2 withcolor blue;
										draw z3--z2..z4..z5 withcolor blue;
									endchar(5);

									%z - Yeelena puis Jeanne OK
									beginchar(122,3,1,1);
										width:=3ux;
										x1=0.25ux;
										x3=baseline;
										x4=x2=width;
										y1=y2=xHeight*uy;
										y3=y4=baseline;
										draw z1--z2--z3--z4 withcolor col;
									endchar(4);


									% ß - Yulen
									beginchar(223,5,1,1);
										x1 = x2 = 0ux;
										x3 = 1ux;
										x4 = x12= 4ux;
										x5 = x6 = x9 = x10 = 4.5ux;
										x7 = 3.5ux;
										x8 = 2.5ux;
										y1 = y11 = y12 = 0uy;
										y10 = 1uy;
										y9 = 2uy;
										y7 = y8 = 3uy;
										y6 = 3.5uy;
										y5 = 5uy;

									endchar(12);

									% (!) - Abigail

									beginchar(33,3,1,1);

										x1 = x2 = x3 = 1.5ux;
										y1 = 6uy;
										y2= 2uy;
										y3 = 0uy;

										draw z1..z2;
										draw z3 withcolor col;

									endchar(3);

									% (?) Eloïse 

									beginchar(63,3,1,1);
										x1 = 0ux;
										x2 =x6 = x7 = 1.5ux;
										x3 = 3ux;
										x5= 1.7ux;
										x4=2.5ux;

										y1=4.8uy;
										y3=5uy;
										y2=6uy;
										y7=0uy;
										y4=3.2uy;
										y5=2.6uy;
										y6=2uy;

										draw z1..z2..z3..z4..z5..z6 withcolor col ;
										draw z7 withcolor col;


									endchar(7);

									%% Tamar
									beginchar(37,7,1,1);
										x1 = x6 = 1ux;
										x2 = x5 = 0.5ux;
										x3 = x4 = 0;
										x7 = x10 = x11 = 1.5ux;
										x8 = x9 = 2ux;
										x12 = x14 = x17 = 5.5ux;
										x13 = x18 = 6ux;
										x15 = x16 = 5ux;
										x19 = x22 = 6.5ux;
										x20 = x21 = 7ux;
										y1 = 2.5uy;
										y2 = y10 = 2.65uy;
										y3 = y9 = 3uy;
										y4 = y8 = 3.5uy;
										y5 = y7 = y12 = 3.85uy;
										y6 = 4uy;
										y13 = 0uy;
										y14 = y11 = y22 = 0.15uy;
										y15 = y21 = 0.65uy;
										y16 = y20 = 1.15uy;
										y17 = y19 = 1.35uy;
										y18 = 1.5uy;
										draw z1..z2..z3--z4..z5..z6..z7..z8--z9..z10..cycle;
										draw z11--z12 withcolor col;
										draw z13..z14..z15--z16..z17..z18..z19..z20--z21..z22..z13..cycle;
									endchar(22);


									%# partie de courbe
									beginchar(35,4,1,1);
										path cut[], curv[];
										x1 = 0ux;
										x2 = 3ux;
										y1 = 3uy;
										y2 = 0uy;
										cut1 = ((x1,y1)--(x2,y1)) shifted (0,-2uy);
										curv1 = (x1,y2){right}..{up}(x2,y1);
										inter1 = xpart(curv1 intersectiontimes cut1);
										draw curv1 withcolor blue;
										draw cut1 withcolor red;
										draw subpath (0,inter1) of curv1 withcolor col;
									endchar(6);
								end;

