<?xml version="1.0"?>
<!-- Created by MetaPost 2.02 on 2023.02.03:1436 -->
<svg version="1.1" xmlns="http://www.w3.org/2000/svg" xmlns:xlink="http://www.w3.org/1999/xlink" width="121.045792" height="138.978500" viewBox="0 0 121.045792 138.978500">
<!-- Original BoundingBox: -8.966354 -35.865417 112.079437 103.113083 -->
  <path d="M-0.966354 138.865417L43.865417 138.865417L43.865417 13.336456L-0.966354 13.336456Z" style="stroke:rgb(100.000000%,0.000000%,0.000000%); stroke-width: 0.000000;stroke-linecap: square;stroke-miterlimit: 10.000000;fill: none;"></path>
  <g transform="matrix(0.707107,-0.707107,0.707107,0.707107,0.000000,0.000000)">
    <path d="M15.247065 21.427323L21.587235 27.767493" style="stroke:rgb(0.000000%,0.000000%,0.000000%); stroke-width: 8.966368;stroke-linecap: square;stroke-miterlimit: 10.000000;fill: none;"></path>
  </g>
  <g transform="matrix(0.707107,-0.707107,0.707107,0.707107,0.000000,0.000000)">
    <path d="M2.566726 21.427323L21.587235 40.447833" style="stroke:rgb(0.000000%,0.000000%,0.000000%); stroke-width: 8.966368;stroke-linecap: square;stroke-miterlimit: 10.000000;fill: none;"></path>
  </g>
  <g transform="matrix(0.707107,-0.707107,0.707107,0.707107,0.000000,0.000000)">
    <path d="M8.906896 40.447833L15.247065 46.788003" style="stroke:rgb(0.000000%,0.000000%,0.000000%); stroke-width: 8.966368;stroke-linecap: square;stroke-miterlimit: 10.000000;fill: none;"></path>
  </g>
  <g transform="matrix(0.707107,-0.707107,0.707107,0.707107,0.000000,0.000000)">
    <path d="M2.566726 46.788003L15.247065 59.468343" style="stroke:rgb(0.000000%,0.000000%,0.000000%); stroke-width: 8.966368;stroke-linecap: square;stroke-miterlimit: 10.000000;fill: none;"></path>
  </g>
  <g transform="matrix(0.707107,-0.707107,0.707107,0.707107,0.000000,0.000000)">
    <path d="M2.566726 59.468343L8.906896 65.808513" style="stroke:rgb(0.000000%,0.000000%,0.000000%); stroke-width: 8.966368;stroke-linecap: square;stroke-miterlimit: 10.000000;fill: none;"></path>
  </g>
  <g transform="matrix(0.707107,-0.707107,0.707107,0.707107,0.000000,0.000000)">
    <path d="M-3.773444 65.808513L8.906896 78.488853" style="stroke:rgb(0.000000%,0.000000%,0.000000%); stroke-width: 8.966368;stroke-linecap: square;stroke-miterlimit: 10.000000;fill: none;"></path>
  </g>
  <g transform="matrix(0.707107,-0.707107,0.707107,0.707107,0.000000,0.000000)">
    <path d="M-3.773444 78.488853L2.566726 84.829023" style="stroke:rgb(0.000000%,0.000000%,0.000000%); stroke-width: 8.966368;stroke-linecap: square;stroke-miterlimit: 10.000000;fill: none;"></path>
  </g>
  <g transform="matrix(0.707107,-0.707107,0.707107,0.707107,0.000000,0.000000)">
    <path d="M-10.113614 84.829023L2.566726 97.509363" style="stroke:rgb(0.000000%,0.000000%,0.000000%); stroke-width: 8.966368;stroke-linecap: square;stroke-miterlimit: 10.000000;fill: none;"></path>
  </g>
  <g transform="matrix(0.707107,-0.707107,0.707107,0.707107,0.000000,0.000000)">
    <path d="M-10.113614 97.509363L-3.773444 103.849533" style="stroke:rgb(0.000000%,0.000000%,0.000000%); stroke-width: 8.966368;stroke-linecap: square;stroke-miterlimit: 10.000000;fill: none;"></path>
  </g>
  <g transform="matrix(0.707107,-0.707107,0.707107,0.707107,0.000000,0.000000)">
    <path d="M-16.453784 103.849533L2.566726 122.870043" style="stroke:rgb(0.000000%,0.000000%,0.000000%); stroke-width: 8.966368;stroke-linecap: square;stroke-miterlimit: 10.000000;fill: none;"></path>
  </g>
  <g transform="matrix(0.707107,-0.707107,0.707107,0.707107,0.000000,0.000000)">
    <path d="M-16.453784 116.529873L-10.113614 122.870043" style="stroke:rgb(0.000000%,0.000000%,0.000000%); stroke-width: 8.966368;stroke-linecap: square;stroke-miterlimit: 10.000000;fill: none;"></path>
  </g>
  <g transform="matrix(0.707107,-0.707107,0.707107,0.707107,0.000000,0.000000)">
    <path d="M-10.113614 21.427323L-10.113614 21.427323" style="stroke:rgb(0.000000%,0.000000%,0.000000%); stroke-width: 8.966368;stroke-linecap: square;stroke-miterlimit: 10.000000;fill: none;"></path>
  </g>
  <g transform="matrix(0.707107,-0.707107,0.707107,0.707107,0.000000,0.000000)">
    <path d="M15.247065 122.870043L15.247065 122.870043" style="stroke:rgb(0.000000%,0.000000%,0.000000%); stroke-width: 8.966368;stroke-linecap: square;stroke-miterlimit: 10.000000;fill: none;"></path>
  </g>
  <g transform="matrix(0.707107,-0.707107,0.707107,0.707107,0.000000,0.000000)">
    <path d="M-10.113614 97.509363L-3.773444 103.849533" style="stroke:rgb(0.000000%,0.000000%,0.000000%); stroke-width: 8.966368;stroke-linecap: square;stroke-miterlimit: 10.000000;fill: none;"></path>
  </g>
  <g transform="matrix(0.707107,-0.707107,0.707107,0.707107,0.000000,0.000000)">
    <path d="M-16.453784 103.849533L2.566726 122.870043" style="stroke:rgb(0.000000%,0.000000%,0.000000%); stroke-width: 8.966368;stroke-linecap: square;stroke-miterlimit: 10.000000;fill: none;"></path>
  </g>
  <g transform="matrix(0.707107,-0.707107,0.707107,0.707107,0.000000,0.000000)">
    <path d="M-22.793954 122.870043L-22.793954 122.870043" style="stroke:rgb(0.000000%,0.000000%,0.000000%); stroke-width: 8.966368;stroke-linecap: square;stroke-miterlimit: 10.000000;fill: none;"></path>
  </g>
  <g transform="matrix(0.707107,-0.707107,0.707107,0.707107,0.000000,0.000000)">
    <path d="M-35.474294 122.870043L-35.474294 122.870043" style="stroke:rgb(0.000000%,0.000000%,0.000000%); stroke-width: 8.966368;stroke-linecap: square;stroke-miterlimit: 10.000000;fill: none;"></path>
  </g>
  <g transform="matrix(0.707107,-0.707107,0.707107,0.707107,0.000000,0.000000)">
    <path d="M-73.515314 97.509363L-48.154634 122.870043" style="stroke:rgb(0.000000%,0.000000%,0.000000%); stroke-width: 8.966368;stroke-linecap: square;stroke-miterlimit: 10.000000;fill: none;"></path>
  </g>
  <g transform="matrix(0.707107,-0.707107,0.707107,0.707107,0.000000,0.000000)">
    <path d="M-73.515314 110.189703L-60.834974 122.870043" style="stroke:rgb(0.000000%,0.000000%,0.000000%); stroke-width: 8.966368;stroke-linecap: square;stroke-miterlimit: 10.000000;fill: none;"></path>
  </g>
  <g transform="matrix(0.707107,-0.707107,0.707107,0.707107,0.000000,0.000000)">
    <path d="M-60.834974 97.509363L-54.494804 103.849533" style="stroke:rgb(0.000000%,0.000000%,0.000000%); stroke-width: 8.966368;stroke-linecap: square;stroke-miterlimit: 10.000000;fill: none;"></path>
  </g>
  <g transform="matrix(0.707107,-0.707107,0.707107,0.707107,0.000000,0.000000)">
    <path d="M72.308595 78.488853L78.648765 84.829023" style="stroke:rgb(0.000000%,0.000000%,0.000000%); stroke-width: 8.966368;stroke-linecap: square;stroke-miterlimit: 10.000000;fill: none;"></path>
  </g>
  <g transform="matrix(0.707107,-0.707107,0.707107,0.707107,0.000000,0.000000)">
    <path d="M59.628255 78.488853L72.308595 91.169193" style="stroke:rgb(0.000000%,0.000000%,0.000000%); stroke-width: 8.966368;stroke-linecap: square;stroke-miterlimit: 10.000000;fill: none;"></path>
  </g>
  <g transform="matrix(0.707107,-0.707107,0.707107,0.707107,0.000000,0.000000)">
    <path d="M59.628255 91.169193L65.968425 97.509363" style="stroke:rgb(0.000000%,0.000000%,0.000000%); stroke-width: 8.966368;stroke-linecap: square;stroke-miterlimit: 10.000000;fill: none;"></path>
  </g>
  <g transform="matrix(0.707107,-0.707107,0.707107,0.707107,0.000000,0.000000)">
    <path d="M53.288085 97.509363L59.628255 103.849533" style="stroke:rgb(0.000000%,0.000000%,0.000000%); stroke-width: 8.966368;stroke-linecap: square;stroke-miterlimit: 10.000000;fill: none;"></path>
  </g>
  <g transform="matrix(0.707107,-0.707107,0.707107,0.707107,0.000000,0.000000)">
    <path d="M40.607745 97.509363L46.947915 103.849533" style="stroke:rgb(0.000000%,0.000000%,0.000000%); stroke-width: 8.966368;stroke-linecap: square;stroke-miterlimit: 10.000000;fill: none;"></path>
  </g>
  <g transform="matrix(0.707107,-0.707107,0.707107,0.707107,0.000000,0.000000)">
    <path d="M34.267575 103.849533L40.607745 110.189703" style="stroke:rgb(0.000000%,0.000000%,0.000000%); stroke-width: 8.966368;stroke-linecap: square;stroke-miterlimit: 10.000000;fill: none;"></path>
  </g>
  <g transform="matrix(0.707107,-0.707107,0.707107,0.707107,0.000000,0.000000)">
    <path d="M21.587235 103.849533L27.927405 110.189703" style="stroke:rgb(0.000000%,0.000000%,0.000000%); stroke-width: 8.966368;stroke-linecap: square;stroke-miterlimit: 10.000000;fill: none;"></path>
  </g>
  <g transform="matrix(0.707107,-0.707107,0.707107,0.707107,0.000000,0.000000)">
    <path d="M15.247065 110.189703L15.247065 110.189703" style="stroke:rgb(0.000000%,0.000000%,0.000000%); stroke-width: 8.966368;stroke-linecap: square;stroke-miterlimit: 10.000000;fill: none;"></path>
  </g>
  <g transform="matrix(0.707107,-0.707107,0.707107,0.707107,0.000000,0.000000)">
    <path d="M2.566726 110.189703L2.566726 110.189703" style="stroke:rgb(0.000000%,0.000000%,0.000000%); stroke-width: 8.966368;stroke-linecap: square;stroke-miterlimit: 10.000000;fill: none;"></path>
  </g>
</svg>
