<?xml version="1.0"?>
<!-- Created by MetaPost 2.02 on 2023.02.03:1436 -->
<svg version="1.1" xmlns="http://www.w3.org/2000/svg" xmlns:xlink="http://www.w3.org/1999/xlink" width="89.663544" height="125.528961" viewBox="0 0 89.663544 125.528961">
<!-- Original BoundingBox: -8.966354 -35.865417 80.697189 89.663544 -->
  <path d="M-0.966354 124.865417L88.697189 124.865417L88.697189 -0.663544L-0.966354 -0.663544Z" style="stroke:rgb(100.000000%,0.000000%,0.000000%); stroke-width: 0.000000;stroke-linecap: square;stroke-miterlimit: 10.000000;fill: none;"></path>
</svg>
