<?xml version="1.0"?>
<!-- Created by MetaPost 2.02 on 2023.05.02:1723 -->
<svg version="1.1" xmlns="http://www.w3.org/2000/svg" xmlns:xlink="http://www.w3.org/1999/xlink" width="804.396484" height="1115.812988" viewBox="0 0 804.396484 1115.812988">
<!-- Original BoundingBox: -163.095459 -318.803711 641.301025 797.009277 -->
  <path d="M83.299072 1115.803711L561.504639 1115.803711L561.504639 -0.009277L83.299072 -0.009277Z" style="stroke:rgb(100.000000%,0.000000%,0.000000%); stroke-width: 0.000000;stroke-linecap: round;stroke-linejoin: round;stroke-miterlimit: 10.000000;fill: none;"></path>
  <path d="M163.000000 159.392578L163.000000 956.401855" style="stroke:rgb(30.000305%,30.000305%,30.000305%); stroke-width: 1.000000;stroke-linecap: round;stroke-linejoin: round;stroke-miterlimit: 10.000000;fill: none;"></path>
  <path d="M242.700928 159.392578L242.700928 956.401855" style="stroke:rgb(30.000305%,30.000305%,30.000305%); stroke-width: 1.000000;stroke-linecap: round;stroke-linejoin: round;stroke-miterlimit: 10.000000;fill: none;"></path>
  <path d="M322.401855 159.392578L322.401855 956.401855" style="stroke:rgb(30.000305%,30.000305%,30.000305%); stroke-width: 1.000000;stroke-linecap: round;stroke-linejoin: round;stroke-miterlimit: 10.000000;fill: none;"></path>
  <path d="M402.102783 159.392578L402.102783 956.401855" style="stroke:rgb(30.000305%,30.000305%,30.000305%); stroke-width: 1.000000;stroke-linecap: round;stroke-linejoin: round;stroke-miterlimit: 10.000000;fill: none;"></path>
  <path d="M481.803711 159.392578L481.803711 956.401855" style="stroke:rgb(30.000305%,30.000305%,30.000305%); stroke-width: 1.000000;stroke-linecap: round;stroke-linejoin: round;stroke-miterlimit: 10.000000;fill: none;"></path>
  <path d="M481.803711 956.401855L163.000000 956.401855" style="stroke:rgb(30.000305%,30.000305%,30.000305%); stroke-width: 1.000000;stroke-linecap: round;stroke-linejoin: round;stroke-miterlimit: 10.000000;fill: none;"></path>
  <path d="M481.803711 876.700928L163.000000 876.700928" style="stroke:rgb(30.000305%,30.000305%,30.000305%); stroke-width: 1.000000;stroke-linecap: round;stroke-linejoin: round;stroke-miterlimit: 10.000000;fill: none;"></path>
  <path d="M481.803711 797.000000L163.000000 797.000000" style="stroke:rgb(30.000305%,30.000305%,30.000305%); stroke-width: 1.000000;stroke-linecap: round;stroke-linejoin: round;stroke-miterlimit: 10.000000;fill: none;"></path>
  <path d="M481.803711 717.299072L163.000000 717.299072" style="stroke:rgb(30.000305%,30.000305%,30.000305%); stroke-width: 1.000000;stroke-linecap: round;stroke-linejoin: round;stroke-miterlimit: 10.000000;fill: none;"></path>
  <path d="M481.803711 637.598145L163.000000 637.598145" style="stroke:rgb(30.000305%,30.000305%,30.000305%); stroke-width: 1.000000;stroke-linecap: round;stroke-linejoin: round;stroke-miterlimit: 10.000000;fill: none;"></path>
  <path d="M481.803711 557.897217L163.000000 557.897217" style="stroke:rgb(30.000305%,30.000305%,30.000305%); stroke-width: 1.000000;stroke-linecap: round;stroke-linejoin: round;stroke-miterlimit: 10.000000;fill: none;"></path>
  <path d="M481.803711 478.196289L163.000000 478.196289" style="stroke:rgb(30.000305%,30.000305%,30.000305%); stroke-width: 1.000000;stroke-linecap: round;stroke-linejoin: round;stroke-miterlimit: 10.000000;fill: none;"></path>
  <path d="M481.803711 398.495361L163.000000 398.495361" style="stroke:rgb(30.000305%,30.000305%,30.000305%); stroke-width: 1.000000;stroke-linecap: round;stroke-linejoin: round;stroke-miterlimit: 10.000000;fill: none;"></path>
  <path d="M481.803711 318.794434L163.000000 318.794434" style="stroke:rgb(30.000305%,30.000305%,30.000305%); stroke-width: 1.000000;stroke-linecap: round;stroke-linejoin: round;stroke-miterlimit: 10.000000;fill: none;"></path>
  <path d="M481.803711 239.093506L163.000000 239.093506" style="stroke:rgb(30.000305%,30.000305%,30.000305%); stroke-width: 1.000000;stroke-linecap: round;stroke-linejoin: round;stroke-miterlimit: 10.000000;fill: none;"></path>
  <path d="M481.803711 159.392578L163.000000 159.392578" style="stroke:rgb(30.000305%,30.000305%,30.000305%); stroke-width: 1.000000;stroke-linecap: round;stroke-linejoin: round;stroke-miterlimit: 10.000000;fill: none;"></path>
  <path d="M163.000000 318.794434L481.803711 318.794434" style="stroke:rgb(0.000000%,100.000000%,100.000000%); stroke-width: 1.000000;stroke-linecap: round;stroke-linejoin: round;stroke-miterlimit: 10.000000;fill: none;"></path>
  <path d="M163.000000 478.196289L481.803711 478.196289" style="stroke:rgb(0.000000%,100.000000%,100.000000%); stroke-width: 1.000000;stroke-linecap: round;stroke-linejoin: round;stroke-miterlimit: 10.000000;fill: none;"></path>
  <path d="M163.000000 159.392578L481.803711 159.392578" style="stroke:rgb(0.000000%,100.000000%,100.000000%); stroke-width: 1.000000;stroke-linecap: round;stroke-linejoin: round;stroke-miterlimit: 10.000000;fill: none;"></path>
  <path d="M163.000000 956.401855L481.803711 956.401855" style="stroke:rgb(0.000000%,100.000000%,100.000000%); stroke-width: 1.000000;stroke-linecap: round;stroke-linejoin: round;stroke-miterlimit: 10.000000;fill: none;"></path>
  <path d="M163.000000 797.000000L481.803711 797.000000" style="stroke:rgb(0.000000%,100.000000%,0.000000%); stroke-width: 1.000000;stroke-linecap: round;stroke-linejoin: round;stroke-miterlimit: 10.000000;fill: none;"></path>
  <g transform="matrix(0.952217,-0.549761,0.305423,0.529009,0.000000,0.000000)">
    <path d="M-117.614668 1083.039736l0 0" style="stroke:rgb(100.000000%,0.000000%,100.000000%); stroke-width: 326.190929;stroke-linecap: round;stroke-linejoin: round;stroke-miterlimit: 10.000000;fill: none;"></path>
  </g>
  <g transform="matrix(0.952217,-0.549761,0.305423,0.529009,0.000000,0.000000)">
    <path d="M-125.313962 924.377708l0 0" style="stroke:rgb(100.000000%,0.000000%,100.000000%); stroke-width: 326.190929;stroke-linecap: round;stroke-linejoin: round;stroke-miterlimit: 10.000000;fill: none;"></path>
  </g>
  <g transform="matrix(1.248077,-0.720576,0.400320,0.693376,0.000000,0.000000)">
    <path d="M-34.430351 653.882512l0 0" style="stroke:rgb(100.000000%,0.000000%,100.000000%); stroke-width: 248.866406;stroke-linecap: round;stroke-linejoin: round;stroke-miterlimit: 10.000000;fill: none;"></path>
  </g>
  <g transform="matrix(0.952217,-0.549761,0.305423,0.529009,0.000000,0.000000)">
    <path d="M-62.538575 989.615618L188.562972 1250.567261" style="stroke:rgb(100.000000%,0.000000%,100.000000%); stroke-width: 326.190929;stroke-linecap: round;stroke-linejoin: round;stroke-miterlimit: 10.000000;fill: none;"></path>
  </g>
  <g transform="matrix(0.952217,-0.549761,0.305423,0.529009,0.000000,0.000000)">
    <path d="M-62.538575 989.615618L-9.474369 1346.082821" style="stroke:rgb(100.000000%,0.000000%,100.000000%); stroke-width: 326.190929;stroke-linecap: round;stroke-linejoin: round;stroke-miterlimit: 10.000000;fill: none;"></path>
  </g>
  <g transform="matrix(0.952217,-0.549761,0.305423,0.529009,0.000000,0.000000)">
    <path d="M188.562972 1250.567261L-9.474369 1346.082821" style="stroke:rgb(100.000000%,0.000000%,100.000000%); stroke-width: 326.190929;stroke-linecap: round;stroke-linejoin: round;stroke-miterlimit: 10.000000;fill: none;"></path>
  </g>
  <g transform="matrix(0.952217,-0.549761,0.305423,0.529009,0.000000,0.000000)">
    <path d="M177.429458 1389.657717l0 0" style="stroke:rgb(100.000000%,0.000000%,100.000000%); stroke-width: 326.190929;stroke-linecap: round;stroke-linejoin: round;stroke-miterlimit: 10.000000;fill: none;"></path>
  </g>
  <g transform="matrix(0.952217,-0.549761,0.305423,0.529009,0.000000,0.000000)">
    <path d="M251.338359 1315.805172l0 0" style="stroke:rgb(100.000000%,0.000000%,100.000000%); stroke-width: 326.190929;stroke-linecap: round;stroke-linejoin: round;stroke-miterlimit: 10.000000;fill: none;"></path>
  </g>
  <g transform="matrix(0.952217,-0.549761,0.305423,0.529009,0.000000,0.000000)">
    <path d="M249.916026 1163.666335l0 0" style="stroke:rgb(100.000000%,0.000000%,100.000000%); stroke-width: 326.190929;stroke-linecap: round;stroke-linejoin: round;stroke-miterlimit: 10.000000;fill: none;"></path>
  </g>
</svg>
