<?xml version="1.0"?>
<!-- Created by MetaPost 2.02 on 2023.05.02:1723 -->
<svg version="1.1" xmlns="http://www.w3.org/2000/svg" xmlns:xlink="http://www.w3.org/1999/xlink" width="1258.304840" height="1200.013916" viewBox="0 0 1258.304840 1200.013916">
<!-- Original BoundingBox: -79.700928 -318.803711 1178.603912 881.210205 -->
  <path d="M-0.700928 1199.803711L636.906494 1199.803711L636.906494 83.990723L-0.700928 83.990723Z" style="stroke:rgb(100.000000%,0.000000%,0.000000%); stroke-width: 0.000000;stroke-linecap: round;stroke-linejoin: round;stroke-miterlimit: 10.000000;fill: none;"></path>
  <path d="M79.000000 243.392578L79.000000 1040.401855" style="stroke:rgb(30.000305%,30.000305%,30.000305%); stroke-width: 1.000000;stroke-linecap: round;stroke-linejoin: round;stroke-miterlimit: 10.000000;fill: none;"></path>
  <path d="M158.700928 243.392578L158.700928 1040.401855" style="stroke:rgb(30.000305%,30.000305%,30.000305%); stroke-width: 1.000000;stroke-linecap: round;stroke-linejoin: round;stroke-miterlimit: 10.000000;fill: none;"></path>
  <path d="M238.401855 243.392578L238.401855 1040.401855" style="stroke:rgb(30.000305%,30.000305%,30.000305%); stroke-width: 1.000000;stroke-linecap: round;stroke-linejoin: round;stroke-miterlimit: 10.000000;fill: none;"></path>
  <path d="M318.102783 243.392578L318.102783 1040.401855" style="stroke:rgb(30.000305%,30.000305%,30.000305%); stroke-width: 1.000000;stroke-linecap: round;stroke-linejoin: round;stroke-miterlimit: 10.000000;fill: none;"></path>
  <path d="M397.803711 243.392578L397.803711 1040.401855" style="stroke:rgb(30.000305%,30.000305%,30.000305%); stroke-width: 1.000000;stroke-linecap: round;stroke-linejoin: round;stroke-miterlimit: 10.000000;fill: none;"></path>
  <path d="M477.504639 243.392578L477.504639 1040.401855" style="stroke:rgb(30.000305%,30.000305%,30.000305%); stroke-width: 1.000000;stroke-linecap: round;stroke-linejoin: round;stroke-miterlimit: 10.000000;fill: none;"></path>
  <path d="M557.205566 243.392578L557.205566 1040.401855" style="stroke:rgb(30.000305%,30.000305%,30.000305%); stroke-width: 1.000000;stroke-linecap: round;stroke-linejoin: round;stroke-miterlimit: 10.000000;fill: none;"></path>
  <path d="M557.205566 1040.401855L79.000000 1040.401855" style="stroke:rgb(30.000305%,30.000305%,30.000305%); stroke-width: 1.000000;stroke-linecap: round;stroke-linejoin: round;stroke-miterlimit: 10.000000;fill: none;"></path>
  <path d="M557.205566 960.700928L79.000000 960.700928" style="stroke:rgb(30.000305%,30.000305%,30.000305%); stroke-width: 1.000000;stroke-linecap: round;stroke-linejoin: round;stroke-miterlimit: 10.000000;fill: none;"></path>
  <path d="M557.205566 881.000000L79.000000 881.000000" style="stroke:rgb(30.000305%,30.000305%,30.000305%); stroke-width: 1.000000;stroke-linecap: round;stroke-linejoin: round;stroke-miterlimit: 10.000000;fill: none;"></path>
  <path d="M557.205566 801.299072L79.000000 801.299072" style="stroke:rgb(30.000305%,30.000305%,30.000305%); stroke-width: 1.000000;stroke-linecap: round;stroke-linejoin: round;stroke-miterlimit: 10.000000;fill: none;"></path>
  <path d="M557.205566 721.598145L79.000000 721.598145" style="stroke:rgb(30.000305%,30.000305%,30.000305%); stroke-width: 1.000000;stroke-linecap: round;stroke-linejoin: round;stroke-miterlimit: 10.000000;fill: none;"></path>
  <path d="M557.205566 641.897217L79.000000 641.897217" style="stroke:rgb(30.000305%,30.000305%,30.000305%); stroke-width: 1.000000;stroke-linecap: round;stroke-linejoin: round;stroke-miterlimit: 10.000000;fill: none;"></path>
  <path d="M557.205566 562.196289L79.000000 562.196289" style="stroke:rgb(30.000305%,30.000305%,30.000305%); stroke-width: 1.000000;stroke-linecap: round;stroke-linejoin: round;stroke-miterlimit: 10.000000;fill: none;"></path>
  <path d="M557.205566 482.495361L79.000000 482.495361" style="stroke:rgb(30.000305%,30.000305%,30.000305%); stroke-width: 1.000000;stroke-linecap: round;stroke-linejoin: round;stroke-miterlimit: 10.000000;fill: none;"></path>
  <path d="M557.205566 402.794434L79.000000 402.794434" style="stroke:rgb(30.000305%,30.000305%,30.000305%); stroke-width: 1.000000;stroke-linecap: round;stroke-linejoin: round;stroke-miterlimit: 10.000000;fill: none;"></path>
  <path d="M557.205566 323.093506L79.000000 323.093506" style="stroke:rgb(30.000305%,30.000305%,30.000305%); stroke-width: 1.000000;stroke-linecap: round;stroke-linejoin: round;stroke-miterlimit: 10.000000;fill: none;"></path>
  <path d="M557.205566 243.392578L79.000000 243.392578" style="stroke:rgb(30.000305%,30.000305%,30.000305%); stroke-width: 1.000000;stroke-linecap: round;stroke-linejoin: round;stroke-miterlimit: 10.000000;fill: none;"></path>
  <path d="M79.000000 402.794434L557.205566 402.794434" style="stroke:rgb(0.000000%,100.000000%,100.000000%); stroke-width: 1.000000;stroke-linecap: round;stroke-linejoin: round;stroke-miterlimit: 10.000000;fill: none;"></path>
  <path d="M79.000000 562.196289L557.205566 562.196289" style="stroke:rgb(0.000000%,100.000000%,100.000000%); stroke-width: 1.000000;stroke-linecap: round;stroke-linejoin: round;stroke-miterlimit: 10.000000;fill: none;"></path>
  <path d="M79.000000 243.392578L557.205566 243.392578" style="stroke:rgb(0.000000%,100.000000%,100.000000%); stroke-width: 1.000000;stroke-linecap: round;stroke-linejoin: round;stroke-miterlimit: 10.000000;fill: none;"></path>
  <path d="M79.000000 1040.401855L557.205566 1040.401855" style="stroke:rgb(0.000000%,100.000000%,100.000000%); stroke-width: 1.000000;stroke-linecap: round;stroke-linejoin: round;stroke-miterlimit: 10.000000;fill: none;"></path>
  <path d="M79.000000 881.000000L557.205566 881.000000" style="stroke:rgb(0.000000%,100.000000%,0.000000%); stroke-width: 1.000000;stroke-linecap: round;stroke-linejoin: round;stroke-miterlimit: 10.000000;fill: none;"></path>
  <path d="M163.200928 805.799072L163.200928 796.799072L154.200928 796.799072L74.500000 876.500000L83.500000 876.500000L83.500000 756.948608L74.500000 765.948608L194.051392 885.500000L194.051392 876.500000L74.500000 876.500000L74.500000 885.500000L83.500000 885.500000L203.051392 885.500000L203.051392 876.500000L83.500000 756.948608L74.500000 756.948608L74.500000 765.948608L74.500000 885.500000L83.500000 885.500000Z" style="fill: rgb(0.000000%,0.000000%,0.000000%);stroke: none;"></path>
  <path d="M233.901855 726.098145L242.901855 726.098145L242.901855 717.098145L233.901855 717.098145L233.901855 726.098145Z" style="fill: rgb(0.000000%,0.000000%,0.000000%);stroke: none;"></path>
  <path d="M213.976624 746.023376L222.976624 746.023376L222.976624 737.023376L213.976624 737.023376L213.976624 746.023376Z" style="fill: rgb(0.000000%,0.000000%,0.000000%);stroke: none;"></path>
  <path d="M174.126160 785.873840L183.126160 785.873840L183.126160 776.873840L174.126160 776.873840L174.126160 785.873840Z" style="fill: rgb(0.000000%,0.000000%,0.000000%);stroke: none;"></path>
  <path d="M194.051392 765.948608L203.051392 765.948608L203.051392 756.948608L194.051392 756.948608L194.051392 765.948608Z" style="fill: rgb(0.000000%,0.000000%,0.000000%);stroke: none;"></path>
  <path d="M960.210205 -0.210205L951.210205 -0.210205L951.210205 8.789795C1163.266617 152.063782,1248.603912 332.127914,1248.603912 507.600357L1248.603912 498.600357C1248.603912 840.988022,923.698242 1165.893692,581.310577 1165.893707L590.310577 1165.893707C414.838135 1165.893707,234.774002 1080.556412,91.500000 868.500000C64.447327 828.459976,47.947357 781.799820,47.947357 738.443390L47.947357 747.443390C47.947357 708.792130,61.060394 672.766449,91.500000 646.397217C123.193893 618.941437,158.292755 607.095718,192.338501 607.095718L183.338501 607.095718C269.724304 607.095703,349.330093 683.359848,349.330078 774.394775L349.330078 765.394775C349.330078 798.787430,338.619080 834.167496,313.602783 868.500000C285.051331 907.684158,241.551361 927.276245,198.051376 927.276230L207.051376 927.276230C163.551407 927.276230,120.051437 907.684158,91.500000 868.500000L82.500000 868.500000L82.500000 877.500000C111.051453 916.684158,154.551422 936.276245,198.051407 936.276230L207.051407 936.276230C250.551376 936.276230,294.051346 916.684158,322.602783 877.500000C347.619080 843.167496,358.330078 807.787430,358.330078 774.394775L358.330078 765.394775C358.330093 674.359848,278.724319 598.095703,192.338501 598.095703L183.338501 598.095703C149.292755 598.095703,114.193893 609.941422,82.500000 637.397217C52.060394 663.766449,38.947357 699.792130,38.947357 738.443390L38.947357 747.443390C38.947357 790.799820,55.447327 837.459976,82.500000 877.500000C225.773987 1089.556412,405.838120 1174.893707,581.310562 1174.893707L590.310562 1174.893707C932.698227 1174.893707,1257.603897 849.988037,1257.603912 507.600372L1257.603912 498.600372C1257.603912 323.127930,1172.266617 143.063797,960.210205 -0.210205Z" style="fill: rgb(0.000000%,0.000000%,0.000000%);stroke: none;"></path>
</svg>
