<?xml version="1.0"?>
<!-- Created by MetaPost 2.02 on 2023.05.02:1723 -->
<svg version="1.1" xmlns="http://www.w3.org/2000/svg" xmlns:xlink="http://www.w3.org/1999/xlink" width="398.504639" height="1115.812988" viewBox="0 0 398.504639 1115.812988">
<!-- Original BoundingBox: -79.700928 -318.803711 318.803711 797.009277 -->
  <path d="M-0.700928 1115.803711L397.803711 1115.803711L397.803711 -0.009277L-0.700928 -0.009277Z" style="stroke:rgb(100.000000%,0.000000%,0.000000%); stroke-width: 0.000000;stroke-linecap: round;stroke-linejoin: round;stroke-miterlimit: 10.000000;fill: none;"></path>
  <path d="M79.000000 159.392578L79.000000 956.401855" style="stroke:rgb(30.000305%,30.000305%,30.000305%); stroke-width: 1.000000;stroke-linecap: round;stroke-linejoin: round;stroke-miterlimit: 10.000000;fill: none;"></path>
  <path d="M158.700928 159.392578L158.700928 956.401855" style="stroke:rgb(30.000305%,30.000305%,30.000305%); stroke-width: 1.000000;stroke-linecap: round;stroke-linejoin: round;stroke-miterlimit: 10.000000;fill: none;"></path>
  <path d="M238.401855 159.392578L238.401855 956.401855" style="stroke:rgb(30.000305%,30.000305%,30.000305%); stroke-width: 1.000000;stroke-linecap: round;stroke-linejoin: round;stroke-miterlimit: 10.000000;fill: none;"></path>
  <path d="M318.102783 159.392578L318.102783 956.401855" style="stroke:rgb(30.000305%,30.000305%,30.000305%); stroke-width: 1.000000;stroke-linecap: round;stroke-linejoin: round;stroke-miterlimit: 10.000000;fill: none;"></path>
  <path d="M318.102783 956.401855L79.000000 956.401855" style="stroke:rgb(30.000305%,30.000305%,30.000305%); stroke-width: 1.000000;stroke-linecap: round;stroke-linejoin: round;stroke-miterlimit: 10.000000;fill: none;"></path>
  <path d="M318.102783 876.700928L79.000000 876.700928" style="stroke:rgb(30.000305%,30.000305%,30.000305%); stroke-width: 1.000000;stroke-linecap: round;stroke-linejoin: round;stroke-miterlimit: 10.000000;fill: none;"></path>
  <path d="M318.102783 797.000000L79.000000 797.000000" style="stroke:rgb(30.000305%,30.000305%,30.000305%); stroke-width: 1.000000;stroke-linecap: round;stroke-linejoin: round;stroke-miterlimit: 10.000000;fill: none;"></path>
  <path d="M318.102783 717.299072L79.000000 717.299072" style="stroke:rgb(30.000305%,30.000305%,30.000305%); stroke-width: 1.000000;stroke-linecap: round;stroke-linejoin: round;stroke-miterlimit: 10.000000;fill: none;"></path>
  <path d="M318.102783 637.598145L79.000000 637.598145" style="stroke:rgb(30.000305%,30.000305%,30.000305%); stroke-width: 1.000000;stroke-linecap: round;stroke-linejoin: round;stroke-miterlimit: 10.000000;fill: none;"></path>
  <path d="M318.102783 557.897217L79.000000 557.897217" style="stroke:rgb(30.000305%,30.000305%,30.000305%); stroke-width: 1.000000;stroke-linecap: round;stroke-linejoin: round;stroke-miterlimit: 10.000000;fill: none;"></path>
  <path d="M318.102783 478.196289L79.000000 478.196289" style="stroke:rgb(30.000305%,30.000305%,30.000305%); stroke-width: 1.000000;stroke-linecap: round;stroke-linejoin: round;stroke-miterlimit: 10.000000;fill: none;"></path>
  <path d="M318.102783 398.495361L79.000000 398.495361" style="stroke:rgb(30.000305%,30.000305%,30.000305%); stroke-width: 1.000000;stroke-linecap: round;stroke-linejoin: round;stroke-miterlimit: 10.000000;fill: none;"></path>
  <path d="M318.102783 318.794434L79.000000 318.794434" style="stroke:rgb(30.000305%,30.000305%,30.000305%); stroke-width: 1.000000;stroke-linecap: round;stroke-linejoin: round;stroke-miterlimit: 10.000000;fill: none;"></path>
  <path d="M318.102783 239.093506L79.000000 239.093506" style="stroke:rgb(30.000305%,30.000305%,30.000305%); stroke-width: 1.000000;stroke-linecap: round;stroke-linejoin: round;stroke-miterlimit: 10.000000;fill: none;"></path>
  <path d="M318.102783 159.392578L79.000000 159.392578" style="stroke:rgb(30.000305%,30.000305%,30.000305%); stroke-width: 1.000000;stroke-linecap: round;stroke-linejoin: round;stroke-miterlimit: 10.000000;fill: none;"></path>
  <path d="M79.000000 318.794434L318.102783 318.794434" style="stroke:rgb(0.000000%,100.000000%,100.000000%); stroke-width: 1.000000;stroke-linecap: round;stroke-linejoin: round;stroke-miterlimit: 10.000000;fill: none;"></path>
  <path d="M79.000000 478.196289L318.102783 478.196289" style="stroke:rgb(0.000000%,100.000000%,100.000000%); stroke-width: 1.000000;stroke-linecap: round;stroke-linejoin: round;stroke-miterlimit: 10.000000;fill: none;"></path>
  <path d="M79.000000 159.392578L318.102783 159.392578" style="stroke:rgb(0.000000%,100.000000%,100.000000%); stroke-width: 1.000000;stroke-linecap: round;stroke-linejoin: round;stroke-miterlimit: 10.000000;fill: none;"></path>
  <path d="M79.000000 956.401855L318.102783 956.401855" style="stroke:rgb(0.000000%,100.000000%,100.000000%); stroke-width: 1.000000;stroke-linecap: round;stroke-linejoin: round;stroke-miterlimit: 10.000000;fill: none;"></path>
  <path d="M79.000000 797.000000L318.102783 797.000000" style="stroke:rgb(0.000000%,100.000000%,0.000000%); stroke-width: 1.000000;stroke-linecap: round;stroke-linejoin: round;stroke-miterlimit: 10.000000;fill: none;"></path>
</svg>
