<?xml version="1.0"?>
<!-- Created by MetaPost 2.02 on 2023.03.28:1605 -->
<svg version="1.1" xmlns="http://www.w3.org/2000/svg" xmlns:xlink="http://www.w3.org/1999/xlink" width="259.028168" height="557.906494" viewBox="0 0 259.028168 557.906494">
<!-- Original BoundingBox: -49.813156 -159.401855 209.215012 398.504639 -->
  <path d="M9.149536 557.401855L248.252319 557.401855L248.252319 -0.504639L9.149536 -0.504639Z" style="stroke:rgb(100.000000%,0.000000%,0.000000%); stroke-width: 0.000000;stroke-linecap: round;stroke-linejoin: round;stroke-miterlimit: 10.000000;fill: none;"></path>
  <path d="M49.000000 79.196289L49.000000 477.700928" style="stroke:rgb(30.000305%,30.000305%,30.000305%); stroke-width: 1.000000;stroke-linecap: round;stroke-linejoin: round;stroke-miterlimit: 10.000000;fill: none;"></path>
  <path d="M88.850464 79.196289L88.850464 477.700928" style="stroke:rgb(30.000305%,30.000305%,30.000305%); stroke-width: 1.000000;stroke-linecap: round;stroke-linejoin: round;stroke-miterlimit: 10.000000;fill: none;"></path>
  <path d="M128.700928 79.196289L128.700928 477.700928" style="stroke:rgb(30.000305%,30.000305%,30.000305%); stroke-width: 1.000000;stroke-linecap: round;stroke-linejoin: round;stroke-miterlimit: 10.000000;fill: none;"></path>
  <path d="M168.551392 79.196289L168.551392 477.700928" style="stroke:rgb(30.000305%,30.000305%,30.000305%); stroke-width: 1.000000;stroke-linecap: round;stroke-linejoin: round;stroke-miterlimit: 10.000000;fill: none;"></path>
  <path d="M208.401855 79.196289L208.401855 477.700928" style="stroke:rgb(30.000305%,30.000305%,30.000305%); stroke-width: 1.000000;stroke-linecap: round;stroke-linejoin: round;stroke-miterlimit: 10.000000;fill: none;"></path>
  <path d="M208.401855 477.700928L49.000000 477.700928" style="stroke:rgb(30.000305%,30.000305%,30.000305%); stroke-width: 1.000000;stroke-linecap: round;stroke-linejoin: round;stroke-miterlimit: 10.000000;fill: none;"></path>
  <path d="M208.401855 437.850464L49.000000 437.850464" style="stroke:rgb(30.000305%,30.000305%,30.000305%); stroke-width: 1.000000;stroke-linecap: round;stroke-linejoin: round;stroke-miterlimit: 10.000000;fill: none;"></path>
  <path d="M208.401855 398.000000L49.000000 398.000000" style="stroke:rgb(30.000305%,30.000305%,30.000305%); stroke-width: 1.000000;stroke-linecap: round;stroke-linejoin: round;stroke-miterlimit: 10.000000;fill: none;"></path>
  <path d="M208.401855 358.149536L49.000000 358.149536" style="stroke:rgb(30.000305%,30.000305%,30.000305%); stroke-width: 1.000000;stroke-linecap: round;stroke-linejoin: round;stroke-miterlimit: 10.000000;fill: none;"></path>
  <path d="M208.401855 318.299072L49.000000 318.299072" style="stroke:rgb(30.000305%,30.000305%,30.000305%); stroke-width: 1.000000;stroke-linecap: round;stroke-linejoin: round;stroke-miterlimit: 10.000000;fill: none;"></path>
  <path d="M208.401855 278.448608L49.000000 278.448608" style="stroke:rgb(30.000305%,30.000305%,30.000305%); stroke-width: 1.000000;stroke-linecap: round;stroke-linejoin: round;stroke-miterlimit: 10.000000;fill: none;"></path>
  <path d="M208.401855 238.598145L49.000000 238.598145" style="stroke:rgb(30.000305%,30.000305%,30.000305%); stroke-width: 1.000000;stroke-linecap: round;stroke-linejoin: round;stroke-miterlimit: 10.000000;fill: none;"></path>
  <path d="M208.401855 198.747681L49.000000 198.747681" style="stroke:rgb(30.000305%,30.000305%,30.000305%); stroke-width: 1.000000;stroke-linecap: round;stroke-linejoin: round;stroke-miterlimit: 10.000000;fill: none;"></path>
  <path d="M208.401855 158.897217L49.000000 158.897217" style="stroke:rgb(30.000305%,30.000305%,30.000305%); stroke-width: 1.000000;stroke-linecap: round;stroke-linejoin: round;stroke-miterlimit: 10.000000;fill: none;"></path>
  <path d="M208.401855 119.046753L49.000000 119.046753" style="stroke:rgb(30.000305%,30.000305%,30.000305%); stroke-width: 1.000000;stroke-linecap: round;stroke-linejoin: round;stroke-miterlimit: 10.000000;fill: none;"></path>
  <path d="M208.401855 79.196289L49.000000 79.196289" style="stroke:rgb(30.000305%,30.000305%,30.000305%); stroke-width: 1.000000;stroke-linecap: round;stroke-linejoin: round;stroke-miterlimit: 10.000000;fill: none;"></path>
  <path d="M49.000000 158.897217L208.401855 158.897217" style="stroke:rgb(0.000000%,100.000000%,100.000000%); stroke-width: 1.000000;stroke-linecap: round;stroke-linejoin: round;stroke-miterlimit: 10.000000;fill: none;"></path>
  <path d="M49.000000 238.598145L208.401855 238.598145" style="stroke:rgb(0.000000%,100.000000%,100.000000%); stroke-width: 1.000000;stroke-linecap: round;stroke-linejoin: round;stroke-miterlimit: 10.000000;fill: none;"></path>
  <path d="M49.000000 79.196289L208.401855 79.196289" style="stroke:rgb(0.000000%,100.000000%,100.000000%); stroke-width: 1.000000;stroke-linecap: round;stroke-linejoin: round;stroke-miterlimit: 10.000000;fill: none;"></path>
  <path d="M49.000000 477.700928L208.401855 477.700928" style="stroke:rgb(0.000000%,100.000000%,100.000000%); stroke-width: 1.000000;stroke-linecap: round;stroke-linejoin: round;stroke-miterlimit: 10.000000;fill: none;"></path>
  <path d="M49.000000 398.000000L208.401855 398.000000" style="stroke:rgb(0.000000%,100.000000%,0.000000%); stroke-width: 1.000000;stroke-linecap: round;stroke-linejoin: round;stroke-miterlimit: 10.000000;fill: none;"></path>
  <g transform="matrix(0.965926,-0.258819,0.258819,0.965926,0.000000,0.000000)">
    <path d="M-40.208588 339.381716l0 0" style="stroke:rgb(0.000000%,0.000000%,0.000000%); stroke-width: 99.626302;stroke-linecap: round;stroke-linejoin: round;stroke-miterlimit: 10.000000;fill: none;"></path>
  </g>
  <g transform="matrix(0.965926,-0.258819,0.258819,0.965926,0.000000,0.000000)">
    <path d="M-9.266390 223.903945l0 0" style="stroke:rgb(0.000000%,0.000000%,0.000000%); stroke-width: 99.626302;stroke-linecap: round;stroke-linejoin: round;stroke-miterlimit: 10.000000;fill: none;"></path>
  </g>
  <g transform="matrix(0.965926,-0.258819,0.258819,0.965926,0.000000,0.000000)">
    <path d="M-55.679688 397.120602l0 0" style="stroke:rgb(0.000000%,0.000000%,0.000000%); stroke-width: 99.626302;stroke-linecap: round;stroke-linejoin: round;stroke-miterlimit: 10.000000;fill: none;"></path>
  </g>
  <g transform="matrix(0.965926,-0.258819,0.258819,0.965926,0.000000,0.000000)">
    <path d="M6.204709 166.165060l0 0" style="stroke:rgb(0.000000%,0.000000%,0.000000%); stroke-width: 99.626302;stroke-linecap: round;stroke-linejoin: round;stroke-miterlimit: 10.000000;fill: none;"></path>
  </g>
  <g transform="matrix(0.965926,-0.258819,0.258819,0.965926,0.000000,0.000000)">
    <path d="M-24.737489 281.642831l0 0" style="stroke:rgb(0.000000%,0.000000%,0.000000%); stroke-width: 99.626302;stroke-linecap: round;stroke-linejoin: round;stroke-miterlimit: 10.000000;fill: none;"></path>
  </g>
  <g transform="matrix(0.965926,-0.258819,0.258819,0.965926,0.000000,0.000000)">
    <path d="M-55.679688 397.120602L98.290674 438.376866" style="stroke:rgb(0.000000%,0.000000%,0.000000%); stroke-width: 99.626302;stroke-linecap: round;stroke-dasharray: 0.000000 70.000000 ;stroke-linejoin: round;stroke-miterlimit: 10.000000;fill: none;"></path>
  </g>
  <g transform="matrix(0.965926,-0.258819,0.258819,0.965926,0.000000,0.000000)">
    <path d="M-24.737489 281.642831L129.232872 322.899095" style="stroke:rgb(0.000000%,0.000000%,0.000000%); stroke-width: 99.626302;stroke-linecap: round;stroke-dasharray: 0.000000 70.000000 ;stroke-linejoin: round;stroke-miterlimit: 10.000000;fill: none;"></path>
  </g>
  <g transform="matrix(0.965926,-0.258819,0.258819,0.965926,0.000000,0.000000)">
    <path d="M102.213878 377.543729l0 0" style="stroke:rgb(0.000000%,0.000000%,0.000000%); stroke-width: 99.626302;stroke-linecap: round;stroke-linejoin: round;stroke-miterlimit: 10.000000;fill: none;"></path>
  </g>
  <g transform="matrix(0.965926,-0.258819,0.258819,0.965926,0.000000,0.000000)">
    <path d="M44.697299 176.479126l0 0" style="stroke:rgb(0.000000%,0.000000%,0.000000%); stroke-width: 99.626302;stroke-linecap: round;stroke-linejoin: round;stroke-miterlimit: 10.000000;fill: none;"></path>
  </g>
  <g transform="matrix(0.965926,-0.258819,0.258819,0.965926,0.000000,0.000000)">
    <path d="M98.512981 252.783362l0 0" style="stroke:rgb(0.000000%,0.000000%,0.000000%); stroke-width: 99.626302;stroke-linecap: round;stroke-linejoin: round;stroke-miterlimit: 10.000000;fill: none;"></path>
  </g>
  <g transform="matrix(0.965926,-0.258819,0.258819,0.965926,0.000000,0.000000)">
    <path d="M113.984080 195.044476l0 0" style="stroke:rgb(0.000000%,0.000000%,0.000000%); stroke-width: 99.626302;stroke-linecap: round;stroke-linejoin: round;stroke-miterlimit: 10.000000;fill: none;"></path>
  </g>
</svg>
